{"content":[{"id":1104198,"mrr":false,"numeroConvocatoria":"902637","descripcion":"Decreto de Alcaldía de fecha 28 de abril de 2026, por el que se aprueba la Convocatoria 2026 de subvenciones a establecimientos comerciales, hosteleros y de servicios en el municipio de Portugalete","descripcionLeng":"Alkatetzaren 2026ko apirilaren 28ko Dekretua, Portugaleteko udalerriko merkataritza-, ostalaritza- eta zerbitzu-establezimenduei dirulaguntzak emateko 2026ko deialdia onesten duena\n","fechaRecepcion":"2026-04-29","nivel1":"LOCAL","nivel2":"PORTUGALETE","nivel3":"AYUNTAMIENTO DE PORTUGALETE","codigoInvente":null},{"id":1104197,"mrr":false,"numeroConvocatoria":"902636","descripcion":"APOYO AL TEJIDO EMPRESARIAL 2026","descripcionLeng":null,"fechaRecepcion":"2026-04-29","nivel1":"LOCAL","nivel2":"VILLA DE MAZO","nivel3":"AYUNTAMIENTO DE VILLA DE MAZO","codigoInvente":null},{"id":1104192,"mrr":false,"numeroConvocatoria":"902631","descripcion":"Convocatoria beca de formación para la Sección de Estadística e Información Rural y Ambiental","descripcionLeng":null,"fechaRecepcion":"2026-04-29","nivel1":"AUTONOMICA","nivel2":"COMUNIDAD FORAL DE NAVARRA","nivel3":"DEPARTAMENTO DE DESARROLLO RURAL Y MEDIO AMBIENTE","codigoInvente":null},{"id":1104189,"mrr":false,"numeroConvocatoria":"902628","descripcion":"SUBVENCIONES A ENTIDADES DEPORTIVAS PARA LA INFORMACIÓN, FORMACIÓN Y DIFUSIÓN DEL DEPORTE TRADICIONAL ASTURIANO 2026","descripcionLeng":null,"fechaRecepcion":"2026-04-29","nivel1":"AUTONOMICA","nivel2":"PRINCIPADO DE ASTURIAS","nivel3":"CONSEJERÍA DE CULTURA, POLÍTICA LINGÜÍSTICA Y TURISMO","codigoInvente":null},{"id":1104188,"mrr":false,"numeroConvocatoria":"902627","descripcion":"Convocatoria de los Premios a la Excelencia Deportiva Categoría Absoluta de Alto Nivel y Alto Rendimiento en el ámbito del P.A. para 2026","descripcionLeng":null,"fechaRecepcion":"2026-04-29","nivel1":"AUTONOMICA","nivel2":"PRINCIPADO DE ASTURIAS","nivel3":"CONSEJERÍA DE CULTURA, POLÍTICA LINGÜÍSTICA Y TURISMO","codigoInvente":null},{"id":1104186,"mrr":false,"numeroConvocatoria":"902625","descripcion":"CONVOCATORIA  SUBVENCIONES 2025 A PROFESIONALES Y EMPRESAS PARA LA EJECUCIÓN DE PROYECTOS CULTURALES Y ACCIONES DE FORMACIÓN Y MOVILIDAD","descripcionLeng":null,"fechaRecepcion":"2026-04-29","nivel1":"AUTONOMICA","nivel2":"PRINCIPADO DE ASTURIAS","nivel3":"CONSEJERÍA DE CULTURA, POLÍTICA LINGÜÍSTICA Y TURISMO","codigoInvente":null},{"id":1104185,"mrr":false,"numeroConvocatoria":"902624","descripcion":"Ayudas para la gestión de los planes de explotación 2026","descripcionLeng":null,"fechaRecepcion":"2026-04-29","nivel1":"AUTONOMICA","nivel2":"PRINCIPADO DE ASTURIAS","nivel3":"CONSEJERÍA DE MEDIO RURAL Y POLÍTICA AGRARIA","codigoInvente":null},{"id":1104184,"mrr":false,"numeroConvocatoria":"902623","descripcion":"Acuerdo Junta de Gobierno Local de 29 de abril de 2026 que aprueba la convocatoria de subvenciones a entidades vecinales para sedes sociales (alquiler) año 2026","descripcionLeng":null,"fechaRecepcion":"2026-04-29","nivel1":"LOCAL","nivel2":"LOGROÑO","nivel3":"AYUNTAMIENTO DE LOGROÑO","codigoInvente":null},{"id":1104180,"mrr":false,"numeroConvocatoria":"902619","descripcion":"Becas de movilidad para el curso 2026-2027 y 2027-2028 en el Máster Universitario Erasmus Mundus en Psicología del Trabajo, las Organizaciones y los Recursos Humanos.","descripcionLeng":"Beques de mobilitat per al curs 2026-2027 i 2027-2028 al Màster Universitari Erasmus Mundus en Psicologia del Treball, les Organitzacions i els Recursos Humans.","fechaRecepcion":"2026-04-29","nivel1":"OTROS","nivel2":"UNIVERSITAT DE VALÈNCIA (ESTUDI GENERAL)","nivel3":null,"codigoInvente":"INV00005380"},{"id":1104179,"mrr":false,"numeroConvocatoria":"902618","descripcion":"Becas de movilidad para el curso 2026-2027 y 2027-2028 en el Máster Universitario Erasmus Mundus en Psicología del Trabajo, las Organizaciones y los Recursos Humanos.","descripcionLeng":"Beques de mobilitat per al curs 2026-2027 i 2027-2028 al Màster Universitari Erasmus Mundus en Psicologia del Treball, les Organitzacions i els Recursos Humans.","fechaRecepcion":"2026-04-29","nivel1":"OTROS","nivel2":"UNIVERSITAT DE VALÈNCIA (ESTUDI GENERAL)","nivel3":null,"codigoInvente":"INV00005380"},{"id":1104177,"mrr":false,"numeroConvocatoria":"902616","descripcion":"BASES REGULADORAS DE LA CONVOCATORIA DE SUBVENCIONES A PROYECTOS DE ACCIÓN HUMANITARIA PARA EL AÑO 2026.","descripcionLeng":null,"fechaRecepcion":"2026-04-29","nivel1":"LOCAL","nivel2":"CÓRDOBA","nivel3":"AYUNTAMIENTO DE CÓRDOBA","codigoInvente":null},{"id":1104170,"mrr":false,"numeroConvocatoria":"902609","descripcion":"Convocatoria pública para solicitar subvenciones para la rehabilitación de viviendas y de edificios de uso residencial y equipamientos en suelo urbano de Sallent.","descripcionLeng":null,"fechaRecepcion":"2026-04-29","nivel1":"LOCAL","nivel2":"SALLENT","nivel3":"AYUNTAMIENTO DE SALLENT","codigoInvente":null},{"id":1104168,"mrr":false,"numeroConvocatoria":"902607","descripcion":"Resolución de 4 de mayo de 2026 , por la que se efectúa Convocatoria 2025 de subvenciones públicas, en régimen de concurrencia competitiva, de la Iniciativa ALMA Andalucía","descripcionLeng":null,"fechaRecepcion":"2026-04-29","nivel1":"AUTONOMICA","nivel2":"ANDALUCÍA","nivel3":"SERVICIO ANDALUZ DE EMPLEO","codigoInvente":"INV00005037"},{"id":1104156,"mrr":false,"numeroConvocatoria":"902595","descripcion":"BASES REGULADORAS DE LA CONVOCATORIA DE SUBVENCIONES A PROYECTOS DE COOPERACIÓN AL DESARROLLO (MODALIDAD B) PARA EL AÑO 2026.","descripcionLeng":null,"fechaRecepcion":"2026-04-29","nivel1":"LOCAL","nivel2":"CÓRDOBA","nivel3":"AYUNTAMIENTO DE CÓRDOBA","codigoInvente":null},{"id":1104146,"mrr":false,"numeroConvocatoria":"902585","descripcion":"Convocatoria y bases reguladoras específicas para la inscripción, designación y organización de la Corte de honor 2026, así como de las ayudas que lleva aparejadas, con motivo de la Feria y fiestas en honor a Ntro. Padre Jesús Nazareno.","descripcionLeng":null,"fechaRecepcion":"2026-04-29","nivel1":"LOCAL","nivel2":"SISANTE","nivel3":"AYUNTAMIENTO DE SISANTE","codigoInvente":null},{"id":1104140,"mrr":false,"numeroConvocatoria":"902579","descripcion":"Resolución de 24 de abril de 2026,  del Director del Instituto de Fomento de la Región de Murcia, por delegación, de convocatoria de ayudas a la participación en ferias, eventos y misiones comerciales. Misión Comercial Directa a Costa de Marfil y Senegal.","descripcionLeng":null,"fechaRecepcion":"2026-04-29","nivel1":"AUTONOMICA","nivel2":"REGIÓN DE MURCIA","nivel3":"INSTITUTO DE FOMENTO DE LA REGIÓN DE MURCIA (INFO)","codigoInvente":"INV00003691"},{"id":1104139,"mrr":false,"numeroConvocatoria":"902578","descripcion":"Conceción de subvenciones en régimen de concurrencia competitiva destinada a entidades culturales locales","descripcionLeng":"Concessió de subvencions en règim de concorrència competitiva destinades a entitats culturals locals","fechaRecepcion":"2026-04-29","nivel1":"LOCAL","nivel2":"VALL D'UIXÓ, LA","nivel3":"AYUNTAMIENTO DE VALL D'UIXÓ, LA","codigoInvente":null},{"id":1104136,"mrr":false,"numeroConvocatoria":"902575","descripcion":"Orden Ministerial 17/2026 de 29 de abril de 2026, por la que se convocan los Premios Defensa 2026","descripcionLeng":null,"fechaRecepcion":"2026-04-29","nivel1":"ESTADO","nivel2":"MINISTERIO DE DEFENSA","nivel3":"SECRETARÍA GENERAL DE POLÍTICA DE DEFENSA","codigoInvente":null},{"id":1104130,"mrr":false,"numeroConvocatoria":"902569","descripcion":"Ayudas a empresas y profesionales para la creación de vídeos en euskera y para su difusión en redes sociales 2026","descripcionLeng":"Euskarazko bideoak sortzeko eta sare sozialetan zabaltzeko laguntzak enpresentzat eta profesionalentzat 2026","fechaRecepcion":"2026-04-29","nivel1":"AUTONOMICA","nivel2":"COMUNIDAD FORAL DE NAVARRA","nivel3":"EUSKARABIDEA / INSTITUTO NAVARRO DEL EUSKERA","codigoInvente":"INV00002165"},{"id":1104128,"mrr":false,"numeroConvocatoria":"902567","descripcion":"CONVOCATORIA PARA LA CONCESION DE SUBVENCIONES PARA ACTIVIDADES DESARROLLADAS POR ENTIDADES Y ASOCIACIONES CIVICAS Y CULTURALES DEL MUNICIPIO DE HOSTALRIC","descripcionLeng":"CONVOCATÒRIA PER A LA CONCESSIÓ DE SUBVENCIONS PER A ACTIVITATS DESENVOLUPADES PER ENTITATS I ASSOCIACIONS CÍVIQUES I CULTURALS DEL MUNICIPI D'HOSTALRIC","fechaRecepcion":"2026-04-29","nivel1":"LOCAL","nivel2":"HOSTALRIC","nivel3":"AYUNTAMIENTO DE HOSTALRIC","codigoInvente":null},{"id":1104126,"mrr":false,"numeroConvocatoria":"902565","descripcion":"CONVOCATORIA AYUDAS DE MÍNIMIS DESTINADAS A COMPENSAR LAS DIFICULTADES DE RECOGIDA DE LA LECHE EN EXPLOTACIONES DE VACUNO DE ALTA MONTAÑA Y ZONAS CON ESPECIAL DIFICULTAD EN CANTABRIA PARA EL AÑO 2026.","descripcionLeng":null,"fechaRecepcion":"2026-04-29","nivel1":"AUTONOMICA","nivel2":"CANTABRIA","nivel3":"CONSEJERÍA DE DESARROLLO RURAL, GANADERÍA, PESCA Y ALIMENTACIÓN","codigoInvente":null},{"id":1104125,"mrr":false,"numeroConvocatoria":"902564","descripcion":"Resolución de 27 de abril de 2026 del Rector de la Universidad de Burgos, por la que se convocan ayudas para admitidos al programa de protección temporal de defensores de derechos humanos Burgos con Colombia para el año 2026","descripcionLeng":null,"fechaRecepcion":"2026-04-29","nivel1":"OTROS","nivel2":"UNIVERSIDAD DE BURGOS","nivel3":null,"codigoInvente":"INV00005331"},{"id":1104122,"mrr":false,"numeroConvocatoria":"902561","descripcion":"Convocatoria para la concesión de subvenciones en materia de ayudas a la natalidad 2026","descripcionLeng":null,"fechaRecepcion":"2026-04-29","nivel1":"LOCAL","nivel2":"CALATAYUD","nivel3":"AYUNTAMIENTO DE CALATAYUD","codigoInvente":null},{"id":1104121,"mrr":false,"numeroConvocatoria":"902560","descripcion":"XXVI Concurs Nacional de Piano Ciutat de Carlet 2026","descripcionLeng":null,"fechaRecepcion":"2026-04-29","nivel1":"LOCAL","nivel2":"CARLET","nivel3":"AYUNTAMIENTO DE CARLET","codigoInvente":null},{"id":1104120,"mrr":false,"numeroConvocatoria":"902559","descripcion":"ASOCIACIONES Y ACTIVIDADES CULTURALES 2026","descripcionLeng":"KULTURA EKIMENETAN DABILTZAN ELKARTEAK 2026","fechaRecepcion":"2026-04-29","nivel1":"LOCAL","nivel2":"LARRABETZU","nivel3":"AYUNTAMIENTO DE LARRABETZU","codigoInvente":null},{"id":1104114,"mrr":false,"numeroConvocatoria":"902553","descripcion":"Convocatoria de subvenciones de L’ETNO, Museu Valencià d’Etnologia, a entidades locales para museos y colecciones etnográficas 2026","descripcionLeng":"Convocatòria de subvencions de L'ETNO, Museu Valencià d'Etnologia, a entitats locals per a museus i col·leccions etnogràfiques 2026","fechaRecepcion":"2026-04-29","nivel1":"LOCAL","nivel2":"DIPUTACIÓN PROV. DE VALENCIA","nivel3":"DIPUTACIÓN PROVINCIAL DE VALENCIA","codigoInvente":null},{"id":1104113,"mrr":false,"numeroConvocatoria":"902552","descripcion":"Convocatoria pública para solicitar subvenciones por la mejora de las condiciones de accesibilidad y de supresión de barreras arquitectónicas de los edificios residenciales y establecimientos comerciales de Sallent.","descripcionLeng":null,"fechaRecepcion":"2026-04-29","nivel1":"LOCAL","nivel2":"SALLENT","nivel3":"AYUNTAMIENTO DE SALLENT","codigoInvente":null},{"id":1104112,"mrr":false,"numeroConvocatoria":"902551","descripcion":"CONVOCATORIA 2026 - AYUDAS A LA INVESTIGACIÓN - INSTITUTO DE ESTUDIOS CEUTÍES","descripcionLeng":null,"fechaRecepcion":"2026-04-29","nivel1":"AUTONOMICA","nivel2":"CIUDAD AUTÓNOMA DE CEUTA","nivel3":"INSTITUTO DE ESTUDIOS CEUTÍES","codigoInvente":null},{"id":1104107,"mrr":false,"numeroConvocatoria":"902546","descripcion":"CONVOCATORIA PARA LA CONCESION DE SUBVENCIONES PARA ACTIVIDADES DESARROLLADAS POR DEPORTISTAS INDIVIDUALES DEL MUNICIPIO DE HOSTALRIC","descripcionLeng":"CONVOCATÒRIA PER A LA CONCESSIÓ DE SUBVENCIONS PER ACTIVITATS DESENVOLUPADES PER ESPORTISTES INDIVIDUALS DEL MUNICIPI D'HOSTALRIC","fechaRecepcion":"2026-04-29","nivel1":"LOCAL","nivel2":"HOSTALRIC","nivel3":"AYUNTAMIENTO DE HOSTALRIC","codigoInvente":null},{"id":1104102,"mrr":false,"numeroConvocatoria":"902541","descripcion":"BASES REGULADORAS DE LA CONVOCATORIA DE SUBVENCIONES A PROYECTOS DE COOPERACIÓN AL DESARROLLO (MODALIDAD A) PARA EL AÑO 2026.","descripcionLeng":null,"fechaRecepcion":"2026-04-29","nivel1":"LOCAL","nivel2":"CÓRDOBA","nivel3":"AYUNTAMIENTO DE CÓRDOBA","codigoInvente":null},{"id":1104100,"mrr":false,"numeroConvocatoria":"902539","descripcion":"V CONVOCATORIA DEL CONSEJO SOCIAL DE BECAS PARA REALIZAR TESIS DOCTORAL EN RÉGIMEN DE COTUTELA PARA EL CURSO 2026/2027","descripcionLeng":null,"fechaRecepcion":"2026-04-29","nivel1":"OTROS","nivel2":"UNIVERSIDAD REY JUAN CARLOS","nivel3":null,"codigoInvente":"INV00005374"},{"id":1104098,"mrr":false,"numeroConvocatoria":"902537","descripcion":"Resolución, de la Dirección General de Ordenación Agropecuaria, por la que se convocan, para el año 2026, las ayudas en régimen de mínimis para la protección del coto arrocero de Hellín (Albacete).","descripcionLeng":null,"fechaRecepcion":"2026-04-29","nivel1":"AUTONOMICA","nivel2":"CASTILLA-LA MANCHA","nivel3":"DIRECCION GENERAL ORDENACION AGROPECUARIA","codigoInvente":null},{"id":1104096,"mrr":false,"numeroConvocatoria":"902535","descripcion":"ANUNCIO SUBVENCIONES PARA EL MANTENIMIENTO Y DESARROLLO DE PROYECTOS SOCIALES Y DE IGUALDAD DE OPORTUNIDADES ENTRE MUJERES Y HOMBRES 2026","descripcionLeng":null,"fechaRecepcion":"2026-04-29","nivel1":"LOCAL","nivel2":"DIPUTACIÓN PROV. DE CASTELLÓN","nivel3":"DIPUTACIÓN PROVINCIAL DE CASTELLÓ/CASTELLÓN","codigoInvente":null},{"id":1104091,"mrr":false,"numeroConvocatoria":"902530","descripcion":"NORMAS REGULADORAS DEL PLAN PARA LA CONTRATACIÓN DE PERSONAL ADMINISTRATIVO DESTINADO A ENTIDADES LOCALES MUNICIPALES CON NÚCLEOS DE POBLACIÓN DISPERSOS Y POBLACIÓN INFERIOR A VEINTE MIL HABITANTES DE LA PROVINCIA DE CÁCERES, EJERCICIO 2026.","descripcionLeng":null,"fechaRecepcion":"2026-04-29","nivel1":"LOCAL","nivel2":"DIPUTACIÓN PROV. DE CÁCERES","nivel3":"DIPUTACIÓN PROVINCIAL DE CÁCERES","codigoInvente":null},{"id":1104090,"mrr":false,"numeroConvocatoria":"902529","descripcion":"CONVOCATORIA PARA LA CONCESION DE SUBVENCIONES PARA ACTIVIDADES DESARROLLADAS POR ENTIDADES Y ASOCIACIONES DEPORTIVAS DEL MUNICIPIO DE HOSTALRIC","descripcionLeng":"CONVOCATÒRIA PER A LA CONCESSIÓ DE SUBVENCIONS PER ACTIVITATS DESENVOLUPADES PER ENTITATS I ASSOCIACIONS ESPORTIVES DEL MUNICIPI D'HOSTALRIC","fechaRecepcion":"2026-04-29","nivel1":"LOCAL","nivel2":"HOSTALRIC","nivel3":"AYUNTAMIENTO DE HOSTALRIC","codigoInvente":null},{"id":1104089,"mrr":false,"numeroConvocatoria":"902528","descripcion":"Convocatoria de subvenciones en régimen de concurrencia competitiva en materia de Deportes 2026. Organización de acontecimientos y actividades deportivas dentro de Calahorra por parte de clubes, asociaciones y entes de promoción deportiva","descripcionLeng":null,"fechaRecepcion":"2026-04-29","nivel1":"LOCAL","nivel2":"CALAHORRA","nivel3":"AYUNTAMIENTO DE CALAHORRA","codigoInvente":null},{"id":1104086,"mrr":false,"numeroConvocatoria":"902525","descripcion":"NORMAS REGULADORAS DEL PLAN PARA LA ADQUISICIÓN DE MOBILIARIO Y EQUIPAMIENTO DE ESPACIOS PÚBLICOS DESTINADOS A ENTIDADES LOCALES MUNICIPALES CON NÚCLEOS DE POBLACIÓN DISPERSOS Y\nPOBLACIÓN INFERIOR A VEINTE MIL HABITANTES DE LA PROVINCIA DE CÁCERES, 2026","descripcionLeng":null,"fechaRecepcion":"2026-04-29","nivel1":"LOCAL","nivel2":"DIPUTACIÓN PROV. DE CÁCERES","nivel3":"DIPUTACIÓN PROVINCIAL DE CÁCERES","codigoInvente":null},{"id":1104085,"mrr":false,"numeroConvocatoria":"902524","descripcion":"CONVOCATORIA DE SUBVENCIONES PARA LA BECA DE INVESTIGACIÓN DE OTOÑO DE LA ESCALA PARA EL EJERCICIO 2026","descripcionLeng":"CONVOCATÒRIA DE SUBVENCIONS PER A LA BECA DE RECERCA DE TARDOR DE L’ESCALA PER A L’EXERCICI 2026","fechaRecepcion":"2026-04-29","nivel1":"LOCAL","nivel2":"ESCALA, L'","nivel3":"AYUNTAMIENTO DE L'ESCALA","codigoInvente":null},{"id":1104084,"mrr":false,"numeroConvocatoria":"902523","descripcion":"SUBVENCIONES.- Convocatoria Plan de aldeas 2026","descripcionLeng":null,"fechaRecepcion":"2026-04-29","nivel1":"LOCAL","nivel2":"DIPUTACIÓN PROV. DE CIUDAD REAL","nivel3":"DIPUTACIÓN PROVINCIAL DE CIUDAD REAL","codigoInvente":null},{"id":1104083,"mrr":false,"numeroConvocatoria":"902522","descripcion":"LÍNEA EMPRESAS MÍNIMIS CONV AYUDAS PARA LA REALIZACIÓN DE DOCT IND 2023-25","descripcionLeng":null,"fechaRecepcion":"2026-04-29","nivel1":"AUTONOMICA","nivel2":"COMUNIDAD DE MADRID","nivel3":"CONSEJERÍA DE EDUCACIÓN, CIENCIA Y UNIVERSIDADES","codigoInvente":null},{"id":1104081,"mrr":false,"numeroConvocatoria":"902520","descripcion":"Acuerdo de la Junta de Gobierno Local 10-04-26, por el que se aprueban las Bases que han de regir el Certamen Nacional y el Certamen Europeo de Cortometrajes ALCINE 55, a celebrar entre los días 5 y el 15 de noviembre de 2026.","descripcionLeng":null,"fechaRecepcion":"2026-04-29","nivel1":"LOCAL","nivel2":"ALCALÁ DE HENARES","nivel3":"AYUNTAMIENTO DE ALCALÁ DE HENARES","codigoInvente":null},{"id":1104078,"mrr":false,"numeroConvocatoria":"902517","descripcion":"Subvenciones para la implementación de servicios y programas y adquisición de equipamientos para asociaciones y entidades de jubilados y pensionistas ","descripcionLeng":null,"fechaRecepcion":"2026-04-29","nivel1":"LOCAL","nivel2":"DIPUTACIÓN PROV. DE CASTELLÓN","nivel3":"DIPUTACIÓN PROVINCIAL DE CASTELLÓ/CASTELLÓN","codigoInvente":null},{"id":1104075,"mrr":false,"numeroConvocatoria":"902514","descripcion":"CONVOCATORIA AYUDAS DE MINIMIS PARA EL APOYO A LA PRODUCCIÓN LECHERA DEL GANADO VACUNO, OVINO Y CAPRINO LIGADA A TIERRA PARA EL AÑO 2026","descripcionLeng":null,"fechaRecepcion":"2026-04-29","nivel1":"AUTONOMICA","nivel2":"CANTABRIA","nivel3":"CONSEJERÍA DE DESARROLLO RURAL, GANADERÍA, PESCA Y ALIMENTACIÓN","codigoInvente":null},{"id":1104073,"mrr":false,"numeroConvocatoria":"902512","descripcion":"Orden de 20 de abril de 2026 por la que se establecen las bases reguladoras para la concesión de ayudas, en régimen de concurrencia no competitiva, para la adquisición de vehículos adaptados que faciliten la prestación de servicios a personas dependientes","descripcionLeng":null,"fechaRecepcion":"2026-04-29","nivel1":"AUTONOMICA","nivel2":"GALICIA","nivel3":"CONSELLERÍA DE PRESIDENCIA, JUSTICIA Y DEPORTES","codigoInvente":null},{"id":1104072,"mrr":false,"numeroConvocatoria":"902511","descripcion":"Convocatoria Misión comercial directa a Brasil","descripcionLeng":null,"fechaRecepcion":"2026-04-29","nivel1":"AUTONOMICA","nivel2":"CASTILLA-LA MANCHA","nivel3":"INSTITUTO DE PROMOCIÓN EXTERIOR DE CASTILLA-LA MANCHA","codigoInvente":null},{"id":1104067,"mrr":false,"numeroConvocatoria":"902506","descripcion":"Resolución de 24 de abril de 2026 del Concejal delegado de Empresa, Turismo y Conocimiento por la cual se convoca concurso público para el otorgamiento de ayudas a las empresas para la contratación de personas en situación de desempleo","descripcionLeng":"Resolució de 24 d'abril de 2026 del Regidor delegat d'Empresa, Turisme i Coneixement, per la qual es convoca concurs públic per a la concessió d'ajuts a les empreses per a la contractació de persones en situació d'atur","fechaRecepcion":"2026-04-29","nivel1":"LOCAL","nivel2":"MANRESA","nivel3":"AYUNTAMIENTO DE MANRESA","codigoInvente":null},{"id":1104064,"mrr":false,"numeroConvocatoria":"902503","descripcion":"CONVOCATORIA BECAS EDUCACIÓN INFANTIL CURSO 2026/2027","descripcionLeng":null,"fechaRecepcion":"2026-04-29","nivel1":"AUTONOMICA","nivel2":"COMUNIDAD DE MADRID","nivel3":"CONSEJERÍA DE EDUCACIÓN, CIENCIA Y UNIVERSIDADES","codigoInvente":null},{"id":1104063,"mrr":false,"numeroConvocatoria":"902502","descripcion":"CONVOCATORIA DE AYUDAS ECONÓMICAS PARA EL TRANSPORTE DE PERSONAS CON DISCAPACIDAD Y/O DEPENDENCIA PARA EL AÑO 2026","descripcionLeng":null,"fechaRecepcion":"2026-04-29","nivel1":"LOCAL","nivel2":"POLINYÀ","nivel3":"AYUNTAMIENTO DE POLINYÀ","codigoInvente":null},{"id":1104061,"mrr":false,"numeroConvocatoria":"902500","descripcion":"Resolución  del 21 de abril de 2026 por la que se aprueban las bases reguladoras para la concesión, en régimen de concurrencia competitiva, de los Premios Agentes TIC de la Red CeMIT, y se procede a su convocatoria para el año 2026 (código de procedimient","descripcionLeng":"Resolución do 21 de abril de 2026 pola que se aproban as bases reguladoras para a concesión, en réxime de concorrencia competitiva, dos Premios Axentes TIC da Rede CeMIT, e se procede á súa convocatoria para o ano 2026 (código de procedemento AP401A)","fechaRecepcion":"2026-04-29","nivel1":"AUTONOMICA","nivel2":"GALICIA","nivel3":"AGENCIA PARA LA MODERNIZACIÓN TECNOLÓGICA DE GALICIA (AMTEGA)","codigoInvente":"INV00000403"},{"id":1104057,"mrr":false,"numeroConvocatoria":"902496","descripcion":"CONVOCATORIA DEL 24º PREMIO JÚNIOR DE EMPRESAS DEL INSTITUTO MUNICIPAL PARA LA FORMACIÓN Y EL EMPLEO DEL AYUNTAMIENTO DE MÁLAGA (IMFE).","descripcionLeng":null,"fechaRecepcion":"2026-04-29","nivel1":"LOCAL","nivel2":"MÁLAGA","nivel3":"INSTITUTO MUNICIPAL PARA LA FORMACIÓN Y EL EMPLEO","codigoInvente":"INV00004053"}],"pageable":{"sort":{"sorted":true,"unsorted":false,"empty":false},"pageNumber":24,"pageSize":50,"offset":1200,"unpaged":false,"paged":true},"last":false,"totalElements":10000,"totalPages":200,"first":false,"sort":{"sorted":true,"unsorted":false,"empty":false},"numberOfElements":50,"size":50,"number":24,"empty":false,"advertencia":"La reutilización de los datos del Sistema Nacional de Publicidad de Subvenciones y Ayudas Públicas está sujeta a una serie de restricciones y consideraciones legales. Consulte el aviso legal en https://www.infosubvenciones.es/bdnstrans/GE/es/avisolegal.Además, el usuario debe ser consciente que la información presentada es de naturaleza dinámica, y que los datos pueden ser sometidos a correcciones, inserciones, modificaciones y eliminaciones en momentos posteriores a su extracción. Accesos al API del sistema Nacional de Publicidad de Subvenciones y Ayudas Públicas. La Administración Presupuestaria, para salvaguardar la protección del acceso libre e irrestricto de los ciudadanos a este Portal y a su información podrá adoptar medidas restrictivas de acceso al API ante situaciones de manifiesto abuso del servicio, riesgos de seguridad, o uso fraudulento de la información descargada, de acuerdo con las buenas prácticas de gestión de datos abiertos (https://datos.gob.es/es/blog/limitaciones-la-consulta-de-una-api) establecidas por el Ministerio para la Transformación Digital y de la Función Pública."}