{"content":[{"id":1105183,"mrr":false,"numeroConvocatoria":"903622","descripcion":"CONCESIÓN DE SUBVENCIÓN A AYTOS DE LA CAC PARA REDACCIÓN ACTUAL O MODF MENOR O SUSTANCIAL  DE INSTRUMENTOS  ORDENAC URBANISTICA","descripcionLeng":null,"fechaRecepcion":"2026-05-05","nivel1":"AUTONOMICA","nivel2":"CANARIAS","nivel3":"CONSEJERÍA DE POLÍTICA TERRITORIAL, COHESIÓN TERRITORIAL Y AGUAS","codigoInvente":null},{"id":1105179,"mrr":false,"numeroConvocatoria":"903618","descripcion":"CONVOCATORIA DE AYUDAS A PYMES DE LA PROVINCIA DE CASTELLÓN PARA LA PARTICIPACION EN MISIÓN COMERCIAL A EGIPTO, DEL 19 AL 23 DE JULIO 2026","descripcionLeng":null,"fechaRecepcion":"2026-05-05","nivel1":"OTROS","nivel2":"CÁMARA DE COMERCIO DE CASTELLÓN","nivel3":null,"codigoInvente":null},{"id":1105178,"mrr":false,"numeroConvocatoria":"903617","descripcion":"Convocatoria de una beca de colaboración en las actividades promovidas o patrocinadas por la Cátedra de Gobierno Abierto de la Universidad de Castilla la Mancha. Curso 2026/2027","descripcionLeng":null,"fechaRecepcion":"2026-05-05","nivel1":"OTROS","nivel2":"UNIVERSIDAD DE CASTILLA-LA MANCHA","nivel3":null,"codigoInvente":"INV00005334"},{"id":1105176,"mrr":false,"numeroConvocatoria":"903615","descripcion":"Convocatoria de la Fundación Biodiversidad, F.S.P., en régimen de concurrencia competitiva, para becas de formación relacionadas con los fines de la Fundación Biodiversidad.","descripcionLeng":null,"fechaRecepcion":"2026-05-05","nivel1":"ESTADO","nivel2":"MINISTERIO PARA LA TRANSICIÓN ECOLÓGICA Y EL RETO DEMOGRÁFICO","nivel3":"FUNDACIÓN BIODIVERSIDAD","codigoInvente":null},{"id":1105175,"mrr":false,"numeroConvocatoria":"903614","descripcion":"Concesión de subvenciones, en régimen de concurrencia no competitiva, a favor de las escuelas de educación infantil y primaria de Salt, para el curso 2025-2026.","descripcionLeng":"Concessió de subvencions, en règim de concurrència competitiva, a favor de les escoles d'educació infantil i primària de Salt, pel curs 2025-2026.","fechaRecepcion":"2026-05-05","nivel1":"LOCAL","nivel2":"SALT","nivel3":"AYUNTAMIENTO DE SALT","codigoInvente":null},{"id":1105173,"mrr":false,"numeroConvocatoria":"903612","descripcion":"Acuerdo de 11/03/2026 del CGI del Excmo. Cabildo Insular de Tenerife, en el que se aprueban las bases y convocatoria de Ayudas para minimizar los daños de la plaga polilla guatemalteca y mejorar calidad de suelos de cultivo en la isla de Tenerife, 2026.","descripcionLeng":null,"fechaRecepcion":"2026-05-05","nivel1":"LOCAL","nivel2":"CABILDO INSULAR DE TENERIFE","nivel3":"CABILDO INSULAR DE TENERIFE","codigoInvente":null},{"id":1105171,"mrr":false,"numeroConvocatoria":"903610","descripcion":"Extracto de la Resolución de 5 de mayo de 2026 de la Fundación Biodiversidad, F.S.P., por la que se aprueba la convocatoria, en régimen de concurrencia competitiva, para becas de formación de cambio climático.","descripcionLeng":null,"fechaRecepcion":"2026-05-05","nivel1":"ESTADO","nivel2":"MINISTERIO PARA LA TRANSICIÓN ECOLÓGICA Y EL RETO DEMOGRÁFICO","nivel3":"FUNDACIÓN BIODIVERSIDAD","codigoInvente":null},{"id":1105163,"mrr":false,"numeroConvocatoria":"903602","descripcion":"RESOLUCIÓN DE 30/04/2026, DE LA AGENCIA DE CIENCIA, COMPETITIVIDAD EMPRESARIAL E INNOVACIÓN ASTURIANA, POR LA QUE SE APRUEBA CONVOCATORIA PARA CONCESIÓN  SUBVENCIONES PARA LA EJECUCIÓN DE PROYECTOS DE I+D EN EL PRINCIPADO DE ASTURIAS DEL EJERCICIO 2026","descripcionLeng":null,"fechaRecepcion":"2026-05-05","nivel1":"AUTONOMICA","nivel2":"PRINCIPADO DE ASTURIAS","nivel3":"AGENCIA DE CIENCIA, COMPETITIVIDAD EMPRESARIAL E INNOVACIÓN","codigoInvente":"INV00003680"},{"id":1105160,"mrr":false,"numeroConvocatoria":"903599","descripcion":"Convocatoria ayudas destinadas a compensar el coste de la vacuna frente a las enfermedades animales de declaración obligatoria en el Principado de Asturias, para el 2025","descripcionLeng":null,"fechaRecepcion":"2026-05-05","nivel1":"AUTONOMICA","nivel2":"PRINCIPADO DE ASTURIAS","nivel3":"CONSEJERÍA DE MEDIO RURAL Y POLÍTICA AGRARIA","codigoInvente":null},{"id":1105158,"mrr":false,"numeroConvocatoria":"903597","descripcion":"CONVOCATORIA DEL CONCURSO DEL CARTEL ANUNCIADOR DE LAS FIESTAS PATRONALES EN HONOR A SAN COSME Y SAN DAMIÁN 2026","descripcionLeng":null,"fechaRecepcion":"2026-05-05","nivel1":"LOCAL","nivel2":"ARNEDO","nivel3":"AYUNTAMIENTO DE ARNEDO","codigoInvente":null},{"id":1105146,"mrr":false,"numeroConvocatoria":"903585","descripcion":"Convocatoria de la Dirección Provincial del SEPE de Granada de subvenciones para la ejecución de proyectos de interés general y social de generación de empleo estable con cargo al Programa de Fomento de Empleo Agrario en 2026","descripcionLeng":null,"fechaRecepcion":"2026-05-05","nivel1":"ESTADO","nivel2":"MINISTERIO DE TRABAJO Y ECONOMÍA SOCIAL","nivel3":"DIRECCIÓN PROVINCIAL DEL SEPE DE GRANADA","codigoInvente":null},{"id":1105143,"mrr":false,"numeroConvocatoria":"903582","descripcion":"convocatoria de concesión de ayudas a los colegios públicos de Ceuta para reparaciones y mantenimiento","descripcionLeng":null,"fechaRecepcion":"2026-05-05","nivel1":"AUTONOMICA","nivel2":"CIUDAD AUTÓNOMA DE CEUTA","nivel3":"CONSEJERÍA DE EDUCACIÓN, CULTURA Y JUVENTUD","codigoInvente":null},{"id":1105141,"mrr":false,"numeroConvocatoria":"903580","descripcion":"CONVOCATORIA DE SUBVENCION PARA EL DESARROLLO DEL PROGRAMA PROVINCIAL DE PLANEAMIENTO URBANISTICO 2026, DESTINADO A MUNICIPIOS DE LA PROVINCIA DE SALAMANCA CON POBLACION INFERIOR A 20.000 HABITANTES","descripcionLeng":null,"fechaRecepcion":"2026-05-05","nivel1":"LOCAL","nivel2":"DIPUTACIÓN PROV. DE SALAMANCA","nivel3":"DIPUTACIÓN DE SALAMANCA","codigoInvente":null},{"id":1105138,"mrr":false,"numeroConvocatoria":"903577","descripcion":"Convocatoria de la Dirección Provincial del SEPE de Granada de subvenciones para la ejecución de proyectos de interés general y social de garantía de rentas con cargo al Programa de Fomento de Empleo Agrario en 2026.","descripcionLeng":null,"fechaRecepcion":"2026-05-05","nivel1":"ESTADO","nivel2":"MINISTERIO DE TRABAJO Y ECONOMÍA SOCIAL","nivel3":"DIRECCIÓN PROVINCIAL DEL SEPE DE GRANADA","codigoInvente":null},{"id":1105137,"mrr":false,"numeroConvocatoria":"903576","descripcion":"Resol. por la que se aprueban las bases reguladoras para la conces. de subvenciones, en régimen de concurrencia no competitiva, destinadas a la ejec. de actuac.  para reducir  infiltraciones en redes saneamento munic. aytos. y E.L.  C.A. Galicia (AU300D)","descripcionLeng":null,"fechaRecepcion":"2026-05-05","nivel1":"AUTONOMICA","nivel2":"GALICIA","nivel3":"AGUAS DE GALICIA","codigoInvente":"INV00000186"},{"id":1105135,"mrr":false,"numeroConvocatoria":"903574","descripcion":"BEQUES ESCOLARS CURS 2026/2027 X2026001632","descripcionLeng":null,"fechaRecepcion":"2026-05-05","nivel1":"LOCAL","nivel2":"ALELLA","nivel3":"AYUNTAMIENTO DE ALELLA","codigoInvente":null},{"id":1105128,"mrr":false,"numeroConvocatoria":"903567","descripcion":"Orden de 5 de mayo de 2026, por la que se convocan las ayudas previstas en la orden de 2 de septiembre de 2022,  a la parada temporal de la flota con puerto base en Andalucía de la modalidad de cerco que faena en el caladero Mediterráneo, PO FEMPA","descripcionLeng":null,"fechaRecepcion":"2026-05-05","nivel1":"AUTONOMICA","nivel2":"ANDALUCÍA","nivel3":"CONSEJERÍA DE AGRICULTURA, PESCA, AGUA Y DESARROLLO RURAL","codigoInvente":null},{"id":1105127,"mrr":false,"numeroConvocatoria":"903566","descripcion":"Convocatoria de subvenciones en régimen de concurrencia competitiva destinadas a entidades deportivas locales para fomentar la práctica del deporte base en el municipio y promover su práctica en todas sus categorías (ejercicio 2026)","descripcionLeng":null,"fechaRecepcion":"2026-05-05","nivel1":"LOCAL","nivel2":"VALL D'UIXÓ, LA","nivel3":"AYUNTAMIENTO DE VALL D'UIXÓ, LA","codigoInvente":null},{"id":1105125,"mrr":false,"numeroConvocatoria":"903564","descripcion":"CONVOCATORIA PYME GLOBAL 2026- CÁMARA JEREZ","descripcionLeng":null,"fechaRecepcion":"2026-05-05","nivel1":"OTROS","nivel2":"CÁMARA DE COMERCIO DE JEREZ","nivel3":null,"codigoInvente":null},{"id":1105118,"mrr":false,"numeroConvocatoria":"903557","descripcion":"CONVOCATORIA DE SUBVENCIONES PARA PROYECTOS DE EDUCACIÓN PARA LA COOPERACIÓN DEL ILMO. AYUNTAMIENTO DE CABRA PARA EL EJERCICIO 2026.","descripcionLeng":null,"fechaRecepcion":"2026-05-05","nivel1":"LOCAL","nivel2":"CABRA","nivel3":"AYUNTAMIENTO DE CABRA","codigoInvente":null},{"id":1105111,"mrr":false,"numeroConvocatoria":"903550","descripcion":"CONVOCATORIA DE SUBVENCIONES PARA PROYECTOS DE ACCIÓN HUMANITARIA Y COOPERACIÓN INTERNACIONAL PARA EL EJERCICIO 2026.","descripcionLeng":null,"fechaRecepcion":"2026-05-05","nivel1":"LOCAL","nivel2":"CABRA","nivel3":"AYUNTAMIENTO DE CABRA","codigoInvente":null},{"id":1105110,"mrr":false,"numeroConvocatoria":"903549","descripcion":"Resolución nº 2026000451 de 05/05/2025 de la Consejería de Cultura, Patrimonio Cultural y Del Mayor, por la que se convoca el PREMIO CULTURAL “MELILLA EN NEORAMA 2026”","descripcionLeng":null,"fechaRecepcion":"2026-05-05","nivel1":"AUTONOMICA","nivel2":"CIUDAD AUTÓNOMA DE MELILLA","nivel3":"CONSEJERÍA DE CULTURA, PATRIMONIO CULTURAL Y DEL MAYOR","codigoInvente":null},{"id":1105109,"mrr":false,"numeroConvocatoria":"903548","descripcion":"BASES Y CONVOCATORIA PARA LA CONCESIÓN DE SUBVENCIONES MUNICIPALES A ENTIDADES SIN ÁNIMO DE LUCRO DEL AYUNTAMIENTO DE TOMIÑO PARA LA REALIZACIÓN DE ACTIVIDADES SOCIALES DURANTE EL AÑO 2026 (EXP. 934/2026)","descripcionLeng":"BASES E CONVOCATORIA PARA A CONCESIÓN DE SUBVENCIÓNS \nMUNICIPAIS A ENTIDADES SEN FIN DE LUCRO DO CONCELLO DE TOMIÑO \nPARA A REALIZACIÓN DE ACTIVIDADES SOCIAIS DURANTE O ANO 2026 (EXP. \n934/2026)","fechaRecepcion":"2026-05-05","nivel1":"LOCAL","nivel2":"TOMIÑO","nivel3":"AYUNTAMIENTO DE TOMIÑO","codigoInvente":null},{"id":1105108,"mrr":false,"numeroConvocatoria":"903547","descripcion":"Ayudas a la creación y consolidación empresas","descripcionLeng":"Enpresak sortzeko eta sendotzeko laguntzak","fechaRecepcion":"2026-05-05","nivel1":"LOCAL","nivel2":"VITORIA-GASTEIZ","nivel3":"AYUNTAMIENTO DE VITORIA-GASTEIZ","codigoInvente":null},{"id":1105105,"mrr":false,"numeroConvocatoria":"903544","descripcion":"Ayudas a la gestión forestal sostenible para fincas de titularidad pública y actuaciones de interés general destinadas a la redacción y revisión de los IOF en el marco del PEPAC 2023-2027 (intervención 6881.4)","descripcionLeng":"Ajuts a la gestió forestal sostenible per a finques de titularitat pública i actuacions d'interès general destinats a la redacció i revisió dels IOF en el marc del PEPAC 2023-2027 (intervenció 6881.4).","fechaRecepcion":"2026-05-05","nivel1":"AUTONOMICA","nivel2":"CATALUÑA","nivel3":"DEPARTAMENT D'AGRICULTURA, RAMADERIA, PESCA I ALIMENTACIÓ","codigoInvente":null},{"id":1105104,"mrr":false,"numeroConvocatoria":"903543","descripcion":"CONVO SUBV COMEDOR ESCOLAR 26/27. EJERCICIO FUTUR","descripcionLeng":null,"fechaRecepcion":"2026-05-05","nivel1":"LOCAL","nivel2":"SANTA PERPÈTUA DE MOGODA","nivel3":"AYUNTAMIENTO DE SANTA PERPÈTUA DE MOGODA","codigoInvente":null},{"id":1105103,"mrr":false,"numeroConvocatoria":"903542","descripcion":"CONVO SUBV COMEDOR ESCOLAR 26/27 EJERCICIO CORRIENTE","descripcionLeng":null,"fechaRecepcion":"2026-05-05","nivel1":"LOCAL","nivel2":"SANTA PERPÈTUA DE MOGODA","nivel3":"AYUNTAMIENTO DE SANTA PERPÈTUA DE MOGODA","codigoInvente":null},{"id":1105100,"mrr":false,"numeroConvocatoria":"903539","descripcion":"XX CERTAMEN DEL PREMIO DE NOVELA DE MÁLAGA 2026”","descripcionLeng":null,"fechaRecepcion":"2026-05-05","nivel1":"LOCAL","nivel2":"MÁLAGA","nivel3":"AYUNTAMIENTO DE MÁLAGA","codigoInvente":null},{"id":1105099,"mrr":false,"numeroConvocatoria":"903538","descripcion":"Resolución de la SETMS, por la que se acuerda iniciar el procedimiento para el otorgamiento de compensaciones a los transportes marítimos y aéreos de mercancías, con origen o destino en Baleares, realizados en el año 2025","descripcionLeng":null,"fechaRecepcion":"2026-05-05","nivel1":"ESTADO","nivel2":"MINISTERIO DE TRANSPORTES Y MOVILIDAD SOSTENIBLE","nivel3":"SECRETARÍA DE ESTADO DE TRANSPORTES Y MOVILIDAD SOSTENIBLE","codigoInvente":null},{"id":1105097,"mrr":false,"numeroConvocatoria":"903536","descripcion":"CONVOCATORIA DE SUBVENCIONES A ASOCIACIONES Y ENTIDADES DE BIENESTAR SOCIAL PARA EL AÑO 2026.","descripcionLeng":null,"fechaRecepcion":"2026-05-05","nivel1":"LOCAL","nivel2":"CABRA","nivel3":"AYUNTAMIENTO DE CABRA","codigoInvente":null},{"id":1105094,"mrr":false,"numeroConvocatoria":"903533","descripcion":"BASES Y CONVOCATORIA PARA LA CONCESIÓN DE SUBVENCIONES MUNICIPALES A ENTIDADES DEPORTIVAS SIN ÁNIMO DE LUCRO Y DEPORTISTAS INDIVIDUALES DEL AYUNTAMIENTO DE TOMIÑO PARA LA REALIZACIÓN DE ACTIVIDADES DEPORTIVAS DURANTE EL AÑO 2026","descripcionLeng":"BASES E CONVOCATORIA PARA A CONCESIÓN DE SUBVENCIÓNS \nMUNICIPAIS A ENTIDADES DEPORTIVAS SEN FIN DE LUCRO E DEPORTISTAS \nINDIVIDUAIS DO CONCELLO DE TOMIÑO PARA A REALIZACIÓN DE \nACTIVIDADES DEPORTIVAS DURANTE O ANO 2026 (EXP. 932/2026 relacionado \nEXP. 933","fechaRecepcion":"2026-05-05","nivel1":"LOCAL","nivel2":"TOMIÑO","nivel3":"AYUNTAMIENTO DE TOMIÑO","codigoInvente":null},{"id":1105089,"mrr":false,"numeroConvocatoria":"903528","descripcion":"XIV CONCURSO DE PINTURA ERNESTO GODAY","descripcionLeng":"XIV CONCURSO DE PINTURA ERNESTO GODAY","fechaRecepcion":"2026-05-05","nivel1":"LOCAL","nivel2":"GROVE, O","nivel3":"AYUNTAMIENTO DE GROVE, O","codigoInvente":null},{"id":1105088,"mrr":false,"numeroConvocatoria":"903527","descripcion":"Convocatoria de subvención de bonos de descuento. Campaña \"Vive Tudela con bono-descuento 2026\".","descripcionLeng":null,"fechaRecepcion":"2026-05-05","nivel1":"LOCAL","nivel2":"TUDELA","nivel3":"AYUNTAMIENTO DE TUDELA","codigoInvente":null},{"id":1105085,"mrr":false,"numeroConvocatoria":"903524","descripcion":"Bases reguladoras y convocatoria de subvenciones para proyectos de mejora de locales de entidades culturales de Sant Pere de Ribes 2026","descripcionLeng":"Bases reguladores i convocatòria de les subvencions per a projectes de millora de locals d'entitats culturals de Sant Pere de Ribes 2026\n","fechaRecepcion":"2026-05-05","nivel1":"LOCAL","nivel2":"SANT PERE DE RIBES","nivel3":"AYUNTAMIENTO DE SANT PERE DE RIBES","codigoInvente":null},{"id":1105083,"mrr":false,"numeroConvocatoria":"903522","descripcion":"CONVOCATORIA DE SUBVENCIONES DESTINADAS A ENTIDADES DEPORTIVAS LOCALES DEL MUNICIPIO DE CABRA PARA EL DESARROLLO DE PROYECTOS Y/O ACTIVIDADES DEPORTIVAS DURANTE EL AÑO 2026","descripcionLeng":null,"fechaRecepcion":"2026-05-05","nivel1":"LOCAL","nivel2":"CABRA","nivel3":"AYUNTAMIENTO DE CABRA","codigoInvente":null},{"id":1105082,"mrr":false,"numeroConvocatoria":"903521","descripcion":"CONVOCATORIA SUBV. A ENTIDADES DE INTERÉS SOCIAL - AÑO 2026","descripcionLeng":null,"fechaRecepcion":"2026-05-05","nivel1":"LOCAL","nivel2":"SAN VICENTE DEL RASPEIG/SANT VICENT DEL RASPEIG","nivel3":"AYUNTAMIENTO DE SAN VICENTE DEL RASPEIG/SANT VICENT DEL RASPEIG","codigoInvente":null},{"id":1105078,"mrr":false,"numeroConvocatoria":"903517","descripcion":"BASES REGULADORAS Y CONVOCATORIA DEL CERTAMEN DE CREACIÓN ARTÍSTICA JOVEN \"CREARTE\" 2026.","descripcionLeng":null,"fechaRecepcion":"2026-05-05","nivel1":"LOCAL","nivel2":"MOLINA DE SEGURA","nivel3":"AYUNTAMIENTO DE MOLINA DE SEGURA","codigoInvente":null},{"id":1105076,"mrr":false,"numeroConvocatoria":"903515","descripcion":"CONVOCATORIA ESPECÍFICA DE SUBVENCIONES DEL ÁREA DE DERECHOS SOCIALES, DIVERSIDAD, IGUALDAD Y ACCESIBILIDAD, PARA EL USO DEL TAXI ADAPTADO A PERSONAS CON MOVILIDAD REDUCIDA, AÑO 2025-2026.","descripcionLeng":null,"fechaRecepcion":"2026-05-05","nivel1":"LOCAL","nivel2":"MÁLAGA","nivel3":"AYUNTAMIENTO DE MÁLAGA","codigoInvente":null},{"id":1105073,"mrr":false,"numeroConvocatoria":"903512","descripcion":"BASES Y CONVOCATORIA PARA LA CONCESIÓN DE SUBVENCIONES MUNICIPALES A ENTIDADES SIN FIN DE LUCRO DEL AYUNTAMIENTO DE TOMIÑO PARA LA REALIZACIÓN DE ACTIVIDADES CULTURALES DURANTE El AÑO 2026 (EXP. 931/2026)","descripcionLeng":"BASES E CONVOCATORIA PARA A CONCESIÓN DE SUBVENCIÓNS \nMUNICIPAIS A ENTIDADES SEN FIN DE LUCRO DO CONCELLO DE TOMIÑO \nPARA A REALIZACIÓN DE ACTIVIDADES CULTURAIS DURANTE O ANO 2026 \n(EXP. 931/2026)","fechaRecepcion":"2026-05-05","nivel1":"LOCAL","nivel2":"TOMIÑO","nivel3":"AYUNTAMIENTO DE TOMIÑO","codigoInvente":null},{"id":1105072,"mrr":false,"numeroConvocatoria":"903511","descripcion":"Convocatoria subvenciones concurrencia competitiva destinadas a entidades sin ánimo de lucro para desarrollar proyectos y actividades falleras, ejercicio 2026","descripcionLeng":"Convocatòria subvencions concurrència competitiva per a entitats sense ànim de lucre que desenvolupen projectes i activitats falleres, exercici 2026","fechaRecepcion":"2026-05-05","nivel1":"LOCAL","nivel2":"POBLA DE VALLBONA, LA","nivel3":"AYUNTAMIENTO DE POBLA DE VALLBONA, LA","codigoInvente":null},{"id":1105070,"mrr":false,"numeroConvocatoria":"903509","descripcion":"CONVOCATORIA PARA LA CONCESIÓN DE SUBVENCIONES PARA PROYECTOS DE COOPERACIÓN Y SOLIDARIDAD DE CARÁCTER GENERAL PARA EL AÑO 2026","descripcionLeng":"CONVOCATÒRIA PER A LA CONCESSIÓ DE SUBVENCIONS PER A PROJECTES DE COOPERACIÓ I SOLIDARITAT DE CARÀCTER GENERAL PER A L'ANY 2026","fechaRecepcion":"2026-05-05","nivel1":"LOCAL","nivel2":"PALAMÓS","nivel3":"AYUNTAMIENTO DE PALAMÓS","codigoInvente":null},{"id":1105068,"mrr":false,"numeroConvocatoria":"903507","descripcion":"Acuerdo de la Junta de Gobierno de la Ciudad de Santa Cruz de Tenerife, en sesión Ordinaria celebrada el día 27 de abril de 2026, del Área de Gobierno de Políticas Sociales, por la que se convoca CONCESIÓN DE SUBVENCIONES DE COOPERACIÓN SOCIAL","descripcionLeng":null,"fechaRecepcion":"2026-05-05","nivel1":"LOCAL","nivel2":"SANTA CRUZ DE TENERIFE","nivel3":"AYUNTAMIENTO DE SANTA CRUZ DE TENERIFE","codigoInvente":null},{"id":1105067,"mrr":false,"numeroConvocatoria":"903506","descripcion":"CONVOCATORIA TERCERA EDICIÓN PREMIOS POLINYÀ INNOVA","descripcionLeng":null,"fechaRecepcion":"2026-05-05","nivel1":"LOCAL","nivel2":"POLINYÀ","nivel3":"AYUNTAMIENTO DE POLINYÀ","codigoInvente":null},{"id":1105066,"mrr":false,"numeroConvocatoria":"903505","descripcion":"Resolución TER//2026, de 28 de abril, por la que se abre la convocatoria para la concesión de ayudas, en régimen de concurrencia pública no competitiva, para la promoción de viviendas con protección oficial en suelos inscritos en reserva pública solares","descripcionLeng":"Resolució TER//2026, de 28 d’abril, per la qual s'obre la convocatòria per a la concessió d’ajuts, en règim de concurrència pública no competitiva, per a la promoció d’habitatges amb protecció oficial en sòls inscrits a la reserva pública de solars","fechaRecepcion":"2026-05-05","nivel1":"AUTONOMICA","nivel2":"CATALUÑA","nivel3":"AGENCIA DE LA VIVIENDA DE CATALUÑA","codigoInvente":null},{"id":1105053,"mrr":false,"numeroConvocatoria":"903492","descripcion":"CONVOCATORIA SUBVENCIONES PARA EL CONCURSO DE CABALLOS DE PURA RAZA ESPAÑOLA Y CRUZADOS","descripcionLeng":null,"fechaRecepcion":"2026-05-05","nivel1":"LOCAL","nivel2":"TINEO","nivel3":"AYUNTAMIENTO DE TINEO","codigoInvente":null},{"id":1105049,"mrr":false,"numeroConvocatoria":"903488","descripcion":"Subvenciones dirigidas al pequeño y mediano campesinado de Collserola por los servicios ecosistémicos que provee a la sociedad, promover buenas prácticas en fincas agroganaderas y tender a la producción ecológica y la agroecología en el Parque - 2026.","descripcionLeng":"Subvencions adreçades a la petita i mitjana pagesia de Collserola pels serveis ecosistèmics que proveeix a la societat, promoure bones pràctiques en finques agroramaderes i tendir a la producció ecològica i la agroecologia a l'àmbit del Parc - 2026.","fechaRecepcion":"2026-05-05","nivel1":"OTROS","nivel2":"CONSORCIO DEL PARQUE NATURAL DE LA SIERRA DE COLLSEROLA","nivel3":null,"codigoInvente":"INV00000753"},{"id":1105048,"mrr":false,"numeroConvocatoria":"903487","descripcion":"Expediente 2747838R: APROBACIÓN BASES REGULADORAS DEL PROCEDIMIENTO DE CONCESIÓN DIRECTA DE AYUDAS ECONÓMICAS EN MATERIA DE NECESIDADES BÁSICAS ESTIVALES DE MENORES CON BECA ESCOLAR DE COMEDOR A y B. EJERCICIO 2026","descripcionLeng":null,"fechaRecepcion":"2026-05-05","nivel1":"LOCAL","nivel2":"PICASSENT","nivel3":"AYUNTAMIENTO DE PICASSENT","codigoInvente":null},{"id":1105046,"mrr":false,"numeroConvocatoria":"903485","descripcion":"CONVOCATORIA DEL XXVI CERTAMEN JÓVENES CREADORES 2026","descripcionLeng":null,"fechaRecepcion":"2026-05-05","nivel1":"LOCAL","nivel2":"SALAMANCA","nivel3":"AYUNTAMIENTO DE SALAMANCA","codigoInvente":null},{"id":1105045,"mrr":false,"numeroConvocatoria":"903484","descripcion":"Resolución de 4 de mayo de 2026 del Rector de la Universidad de Burgos, por la que se convocan ayudas para el programa de trabajos fin de grado/máster, practicum y prácticas universitarias curriculares en cooperación internacional para el desarrollo","descripcionLeng":null,"fechaRecepcion":"2026-05-05","nivel1":"OTROS","nivel2":"UNIVERSIDAD DE BURGOS","nivel3":null,"codigoInvente":"INV00005331"},{"id":1105040,"mrr":false,"numeroConvocatoria":"903479","descripcion":"CONVOCATORIA PARA LA CONCESIÓN DE SUBVENCIONES DEL AREA DE SERVICIOS AL TERRITORIO PARA EL AÑO 2026","descripcionLeng":"CONVOCATÒRIA PER A LA CONCESSIÓ DE SUBVENCIONS DE L’ÀREA DE SERVEIS AL TERRITORI PER A L’ANY 2026.","fechaRecepcion":"2026-05-05","nivel1":"LOCAL","nivel2":"VILA-SECA","nivel3":"AYUNTAMIENTO DE VILA-SECA","codigoInvente":null}],"pageable":{"sort":{"sorted":true,"unsorted":false,"empty":false},"pageNumber":17,"pageSize":50,"offset":850,"unpaged":false,"paged":true},"last":false,"totalPages":200,"totalElements":10000,"first":false,"sort":{"sorted":true,"unsorted":false,"empty":false},"numberOfElements":50,"size":50,"number":17,"empty":false,"advertencia":"La reutilización de los datos del Sistema Nacional de Publicidad de Subvenciones y Ayudas Públicas está sujeta a una serie de restricciones y consideraciones legales. Consulte el aviso legal en https://www.infosubvenciones.es/bdnstrans/GE/es/avisolegal.Además, el usuario debe ser consciente que la información presentada es de naturaleza dinámica, y que los datos pueden ser sometidos a correcciones, inserciones, modificaciones y eliminaciones en momentos posteriores a su extracción. Accesos al API del sistema Nacional de Publicidad de Subvenciones y Ayudas Públicas. La Administración Presupuestaria, para salvaguardar la protección del acceso libre e irrestricto de los ciudadanos a este Portal y a su información podrá adoptar medidas restrictivas de acceso al API ante situaciones de manifiesto abuso del servicio, riesgos de seguridad, o uso fraudulento de la información descargada, de acuerdo con las buenas prácticas de gestión de datos abiertos (https://datos.gob.es/es/blog/limitaciones-la-consulta-de-una-api) establecidas por el Ministerio para la Transformación Digital y de la Función Pública."}