{"content":[{"id":1111350,"mrr":false,"numeroConvocatoria":"909789","descripcion":"Convocatoria de subvenciones por concurrencia competitiva en materia de Deportes correspondiente al año 2026","descripcionLeng":"Convocatòria de subvencions per concurrència competitiva en matèria d'Esports corresponent a l'any 2026","fechaRecepcion":"2026-06-02","nivel1":"LOCAL","nivel2":"BADALONA","nivel3":"AYUNTAMIENTO DE BADALONA","codigoInvente":null},{"id":1111349,"mrr":false,"numeroConvocatoria":"909788","descripcion":"Convocatoria de subvenciones por concurrencia competitiva en materia de Cultura correspondiente al año 2026","descripcionLeng":"Convocatòria de subvencions per concurrència competitiva en matèria de Cultura corresponent a l'any 2026","fechaRecepcion":"2026-06-02","nivel1":"LOCAL","nivel2":"BADALONA","nivel3":"AYUNTAMIENTO DE BADALONA","codigoInvente":null},{"id":1111347,"mrr":false,"numeroConvocatoria":"909786","descripcion":"Convocatoria de subvenciones por concurrencia competitiva en materia de Participación (B2 - Casas regionales) correspondiente al año 2026","descripcionLeng":"Convocatòria de subvencions per concurrència competitiva en matèria de Participació (B2 - Cases regionals) corresponent a l'any 2026","fechaRecepcion":"2026-06-02","nivel1":"LOCAL","nivel2":"BADALONA","nivel3":"AYUNTAMIENTO DE BADALONA","codigoInvente":null},{"id":1111346,"mrr":false,"numeroConvocatoria":"909785","descripcion":"Convocatoria de subvenciones por concurrencia competitiva en materia de Participación (B1- Entidades vecinales) correspondiente al año 2026","descripcionLeng":"Convocatòria de subvencions per concurrència competitiva en matèria de Participació (B1- Entitats veïnals) corresponent a l'any 2026","fechaRecepcion":"2026-06-02","nivel1":"LOCAL","nivel2":"BADALONA","nivel3":"AYUNTAMIENTO DE BADALONA","codigoInvente":null},{"id":1111342,"mrr":false,"numeroConvocatoria":"909781","descripcion":"Acuerdo 29 de mayo de la JGL por el que se aprueba las Bases y Convocatoria para la Concesión de Subvenciones y Ayudas a Programas de Deporte Municipal en Alhama de Murcia año 2026","descripcionLeng":null,"fechaRecepcion":"2026-06-02","nivel1":"LOCAL","nivel2":"ALHAMA DE MURCIA","nivel3":"AYUNTAMIENTO DE ALHAMA DE MURCIA","codigoInvente":null},{"id":1111340,"mrr":false,"numeroConvocatoria":"909779","descripcion":"BASES REGULADORAS ESPECÍFICAS Y CONVOCATORIA DE LA LÍNEA DE SUBVENCIONES DEL SERVICIO DE DEPORTES DEL ÁREA DE CULTURA Y CIUDADANÍA DESTINADAS A ENTIDADES DEPORTIVAS PARA LA PROMOCIÓN DE MODALIDADES DEPORTIVAS MINORITARIAS OLÍMPICAS Y PARALÍMPICAS (2026)","descripcionLeng":null,"fechaRecepcion":"2026-06-02","nivel1":"LOCAL","nivel2":"DIPUTACIÓN PROV. DE SEVILLA","nivel3":"DIPUTACIÓN PROVINCIAL DE SEVILLA","codigoInvente":null},{"id":1111336,"mrr":false,"numeroConvocatoria":"909775","descripcion":"Convocatoria de subvenciones para la concesión de ayudas del Programa \"Cheque formación 2026-2028\", con el objeto de financiar formación en el trabajo dirigido a personas desempleadas y ocupadas","descripcionLeng":"convocatòria de subvencions per a la concessió d’ajuts del Programa «Xec formació 2026-2028», amb l’objectiu de finançar formació en el treball adreçada a persones treballadores desocupades i ocupades","fechaRecepcion":"2026-06-02","nivel1":"AUTONOMICA","nivel2":"ILLES BALEARS","nivel3":"SERVICIO DE OCUPACIÓN DE LAS ISLAS BALEARES (SOIB)","codigoInvente":null},{"id":1111335,"mrr":false,"numeroConvocatoria":"909774","descripcion":"EXPORT AYUDAS COSTE TRANSPORTE EXPORTACION MERCANCIAS","descripcionLeng":"EXPORT AJUTS COST TRANSPORT EXPORTACIO MERCADERIES","fechaRecepcion":"2026-06-02","nivel1":"AUTONOMICA","nivel2":"ILLES BALEARS","nivel3":"DIRECCIÓN GENERAL DE POLÍTICA INDUSTRIAL","codigoInvente":null},{"id":1111333,"mrr":false,"numeroConvocatoria":"909772","descripcion":"BASES Y CONVOCATORIA PARA LA CONCESIÓN DE AYUDAS A LOS ALUMNOS DE LA ESCUELA DE MÚSICA DE PEÑAFIEL CURSO 2025-2026","descripcionLeng":null,"fechaRecepcion":"2026-06-01","nivel1":"LOCAL","nivel2":"PEÑAFIEL","nivel3":"AYUNTAMIENTO DE PEÑAFIEL","codigoInvente":null},{"id":1111329,"mrr":false,"numeroConvocatoria":"909768","descripcion":"Una beca form. e inves. determinantes comerciales en salud perspectiva comunitaria y de diversidad","descripcionLeng":null,"fechaRecepcion":"2026-06-01","nivel1":"LOCAL","nivel2":"MADRID","nivel3":"MADRID SALUD","codigoInvente":"INV00003866"},{"id":1111325,"mrr":false,"numeroConvocatoria":"909764","descripcion":"202602502001 Subvenciones para la creación y el fomento del empleo en el municipio de Murcia","descripcionLeng":null,"fechaRecepcion":"2026-06-01","nivel1":"LOCAL","nivel2":"MURCIA","nivel3":"AYUNTAMIENTO DE MURCIA","codigoInvente":null},{"id":1111309,"mrr":false,"numeroConvocatoria":"909748","descripcion":"CONVOCATORIA PARA LA CONCESIÓN DE SUBVENCIONES CON CARGO ALPROGRAMA DE INCENTIVOS A LA CONTRATACIÓN LABORAL DE PERSONAS DESEMPLEADAS DE LARGA DURACIÓN “RETORNO AL EMPLEO”, CORRESPONDIENTE AL EJERCICIO 2026-2027","descripcionLeng":null,"fechaRecepcion":"2026-06-01","nivel1":"AUTONOMICA","nivel2":"CANARIAS","nivel3":"SERVICIO CANARIO DE EMPLEO","codigoInvente":null},{"id":1111308,"mrr":false,"numeroConvocatoria":"909747","descripcion":"Resolución de la Presidenta del Servicio Canario de Empleo, por la que  se aprueba la convocatoria para la concesión de subvenciones con cargo al programa Certifícate 2026 -2027.","descripcionLeng":null,"fechaRecepcion":"2026-06-01","nivel1":"AUTONOMICA","nivel2":"CANARIAS","nivel3":"SERVICIO CANARIO DE EMPLEO","codigoInvente":null},{"id":1111307,"mrr":false,"numeroConvocatoria":"909746","descripcion":"SUBVENCIONES PARA LA MOVILIDAD URBANA 2026 (FEDER 2021-2027)","descripcionLeng":null,"fechaRecepcion":"2026-06-01","nivel1":"AUTONOMICA","nivel2":"CANARIAS","nivel3":"CONSEJERÍA DE TRANSICIÓN ECOLÓGICA Y ENERGÍA","codigoInvente":null},{"id":1111306,"mrr":false,"numeroConvocatoria":"909745","descripcion":"SUBVENCIONES PARA LA MOVILIDAD URBANA 2026 (FEDER 2021-2027)","descripcionLeng":null,"fechaRecepcion":"2026-06-01","nivel1":"AUTONOMICA","nivel2":"CANARIAS","nivel3":"CONSEJERÍA DE TRANSICIÓN ECOLÓGICA Y ENERGÍA","codigoInvente":null},{"id":1111301,"mrr":false,"numeroConvocatoria":"909740","descripcion":"Convocatoria de subvención en régimen de concurrencia competitiva para el fomento de proyectos y/o actividades del ámbito de Cooperación y Solidaridad para el año 2026-27.","descripcionLeng":"\nConvocatòria de subvenció en règim de concurrència competitiva per al foment de projectes i/o activitats de l’àmbit de Cooperació i Solidaritat per a l'any 2026-27.\n\n","fechaRecepcion":"2026-06-01","nivel1":"LOCAL","nivel2":"SANT BOI DE LLOBREGAT","nivel3":"AYUNTAMIENTO DE SANT BOI DE LLOBREGAT","codigoInvente":null},{"id":1111296,"mrr":false,"numeroConvocatoria":"909735","descripcion":"CONVOCATORIA 2026 DE SUBVENCIONES DESTINADAS A FINANCIAR EL CÁLCULO DE LA HUELLA DE CARBONO Y LA ELABORACIÓN DE PROYECTOS DE ABSORCIÓN DE CO2 PARA SU INSCRIPCIÓN EN EL REGISTRO DE HUELLA DE CARBONO DEL PRINCIPADO DE ASTURIAS","descripcionLeng":null,"fechaRecepcion":"2026-06-01","nivel1":"AUTONOMICA","nivel2":"PRINCIPADO DE ASTURIAS","nivel3":"CONSEJERÍA DE MOVILIDAD, COOPERACIÓN LOCAL Y GESTIÓN DE EMERGENCIAS","codigoInvente":null},{"id":1111294,"mrr":false,"numeroConvocatoria":"909733","descripcion":"Segunda convocatoria de subvenciones a Entidades Locales para la redacción de planes generales de ordenación y catálogos urbanísticos  al TROTU y al ROTU","descripcionLeng":null,"fechaRecepcion":"2026-06-01","nivel1":"AUTONOMICA","nivel2":"PRINCIPADO DE ASTURIAS","nivel3":"CONSEJERÍA ORDENACIÓN DE TERRITORIO, URBANISMO, VIVIENDA Y DERECHOS CIUDADANOS","codigoInvente":null},{"id":1111287,"mrr":false,"numeroConvocatoria":"909726","descripcion":"LA CONCESIÓN DE SUBVENCIONES DE MODERNIZACIÓN Y DIVERSIFICACIÓN DEL SECTOR INDUSTRIAL 2026","descripcionLeng":null,"fechaRecepcion":"2026-06-01","nivel1":"AUTONOMICA","nivel2":"CANARIAS","nivel3":"CONSEJERÍA DE ECONOMÍA, INDUSTRIA, COMERCIO Y AUTÓNOMOS","codigoInvente":null},{"id":1111286,"mrr":false,"numeroConvocatoria":"909725","descripcion":"Aprobar la convocatoria mediante el procedimiento de concurrencia competitiva, para el otorgamiento de subvenciones a las actividades de Barrios, a las entidades vecinales de Granollers para el año 2026","descripcionLeng":"Aprovar la convocatòria mitjançant el procediment de concurrència competitiva, per a l' atorgament de subvencions a les activitats de Barris, a les entitats veïnals de Granollers per a l'any 2026","fechaRecepcion":"2026-06-01","nivel1":"LOCAL","nivel2":"GRANOLLERS","nivel3":"AYUNTAMIENTO DE GRANOLLERS","codigoInvente":null},{"id":1111284,"mrr":false,"numeroConvocatoria":"909723","descripcion":"Convocatoria de ayudas para la realización de talleres de identificación de proyectos de cooperación universitaria al desarrollo para el año 2026.","descripcionLeng":null,"fechaRecepcion":"2026-06-01","nivel1":"OTROS","nivel2":"UNIVERSIDAD DE LA LAGUNA","nivel3":null,"codigoInvente":"INV00005341"},{"id":1111282,"mrr":false,"numeroConvocatoria":"909721","descripcion":"CONVOCATORIA DE SUBVENCIONES EN RÉGIMEN DE CONCURRENCIA COMPETITIVA DIRIGIDA A ENTIDADES SIN ÁNIMO DE LUCRO PARA LA ATENCIÓN RESIDENCIAL Y ACOGIDA INTEGRAL A PERSONAS SIN HOGAR. AÑO 2026.","descripcionLeng":null,"fechaRecepcion":"2026-06-01","nivel1":"LOCAL","nivel2":"MÁLAGA","nivel3":"AYUNTAMIENTO DE MÁLAGA","codigoInvente":null},{"id":1111280,"mrr":false,"numeroConvocatoria":"909719","descripcion":"Convocatoria de becas Santander de movilidad internacional Incoming para el curso 2026/2027","descripcionLeng":null,"fechaRecepcion":"2026-06-01","nivel1":"OTROS","nivel2":"UNIVERSIDAD DE LA LAGUNA","nivel3":null,"codigoInvente":"INV00005341"},{"id":1111279,"mrr":false,"numeroConvocatoria":"909718","descripcion":"Ayudas económicas para el fomento de la natalidad","descripcionLeng":null,"fechaRecepcion":"2026-06-01","nivel1":"LOCAL","nivel2":"ALCORA, L'","nivel3":"AYUNTAMIENTO DE ALCORA, L'","codigoInvente":null},{"id":1111275,"mrr":false,"numeroConvocatoria":"909714","descripcion":"PREMIO DE PERIODISMO Y COMUNICACION LOCAL DE LA DIPUTACION PROVINCIAL DE JAEN DEL AÑO 2025","descripcionLeng":null,"fechaRecepcion":"2026-06-01","nivel1":"LOCAL","nivel2":"DIPUTACIÓN PROV. DE JAÉN","nivel3":"DIPUTACIÓN PROVINCIAL DE JAÉN","codigoInvente":null},{"id":1111273,"mrr":false,"numeroConvocatoria":"909712","descripcion":"RESOLUCIÓN del director de la Agencia Valenciana de Fomento y Garantía Agraria, por la que se convocan ayudas a inversiones en explotaciones agrarias de la Comunitat Valenciana en el marco del Plan Estratégico de la Política Agraria Común de España 2023-2","descripcionLeng":null,"fechaRecepcion":"2026-06-01","nivel1":"AUTONOMICA","nivel2":"COMUNITAT VALENCIANA","nivel3":"AGENCIA VALENCIANA DE FOMENTO Y GARANTÍA AGRARIA","codigoInvente":"INV00000152"},{"id":1111271,"mrr":false,"numeroConvocatoria":"909710","descripcion":"Convocatòria en matèria educativa, sortides i activitats extraescolars 2026-2027.","descripcionLeng":null,"fechaRecepcion":"2026-06-01","nivel1":"LOCAL","nivel2":"ARTÉS","nivel3":"AYUNTAMIENTO DE ARTÉS","codigoInvente":null},{"id":1111270,"mrr":false,"numeroConvocatoria":"909709","descripcion":"Subvenciones estructurales para la edición de medios informativos digitales de titularidad privada en catalán o en aranés.","descripcionLeng":"Subvencions estructurals per a l'edició de mitjans informatius digitals de titularitat privada en català o en aranès.","fechaRecepcion":"2026-06-01","nivel1":"AUTONOMICA","nivel2":"CATALUÑA","nivel3":"DEPARTAMENT DE LA PRESIDÈNCIA","codigoInvente":null},{"id":1111269,"mrr":false,"numeroConvocatoria":"909708","descripcion":"CONVOCATORIA DE AYUDAS PARA DERECHOS DE MATRÍCULA PARA CURSOS DE AULA MENTOR DEL AYUNTAMIENTO DE ALFAFAR - EJERCICIO 2026.","descripcionLeng":null,"fechaRecepcion":"2026-06-01","nivel1":"LOCAL","nivel2":"ALFAFAR","nivel3":"AYUNTAMIENTO DE ALFAFAR","codigoInvente":null},{"id":1111268,"mrr":false,"numeroConvocatoria":"909707","descripcion":"XLI CONCURSO DE CARTELES DE FIESTAS DEL CRISTO 2026","descripcionLeng":null,"fechaRecepcion":"2026-06-01","nivel1":"LOCAL","nivel2":"ALCORA, L'","nivel3":"AYUNTAMIENTO DE ALCORA, L'","codigoInvente":null},{"id":1111267,"mrr":false,"numeroConvocatoria":"909706","descripcion":"RESOLUCION VICERRECTOR DE ESTUDIANTES Y VICERRECTORA DE INTERNACIONALIZACION (29-5-26), CONVOCANDO BECAS PARA ESTUDIANTES SECCIONES BILINGÜES DE ESPAÑOL DE BULGARIA, ESLOVAQUIA, HUNGRIA, POLONIA, REPUBLICA CHECA Y RUMANIA, Y ESTUDIANTES UCRANIANOS. 26-27","descripcionLeng":null,"fechaRecepcion":"2026-06-01","nivel1":"OTROS","nivel2":"UNIVERSIDAD DE GRANADA","nivel3":null,"codigoInvente":"INV00005337"},{"id":1111249,"mrr":false,"numeroConvocatoria":"909688","descripcion":"CONVOCATORIA 2026 DE SUBVENCIONES DE CONCURRENCIA COMPETITIVA QUE OTORGA EL AYUNTAMIENTO DE ALCOBENDAS PARA ACTIVIDADES Y FUNCIONAMIENTO DE LAS ASOCIACIONES DEL AMBITO DE JUVENTUD, INFANCIA Y ADOLESCENCIA","descripcionLeng":null,"fechaRecepcion":"2026-06-01","nivel1":"LOCAL","nivel2":"ALCOBENDAS","nivel3":"AYUNTAMIENTO DE ALCOBENDAS","codigoInvente":null},{"id":1111248,"mrr":false,"numeroConvocatoria":"909687","descripcion":"RESOLUCIÓN DEL VICERRECTOR DE ESTUDIANTES (29-5-26) CONVOCANDO BECAS PARA INICIAR ESTUDIOS DURANTE EL PRÓXIMO CURSO 2026/2027, PARA ESTUDIANTES MARROQUÍES QUE HAYAN CURSADO ESTUDIOS EN CENTROS ESPAÑOLES EN MARRUECOS DE ENSEÑANZA SECUNDARIA.","descripcionLeng":null,"fechaRecepcion":"2026-06-01","nivel1":"OTROS","nivel2":"UNIVERSIDAD DE GRANADA","nivel3":null,"codigoInvente":"INV00005337"},{"id":1111246,"mrr":false,"numeroConvocatoria":"909685","descripcion":"Convocatoria de concesión de subvenciones económicas por parte del Ayuntamiento de Sestao para el desarrollo de actividades en el ámbito de la Igualdad entre Mujeres y Hombres durante el ejercicio de 2026","descripcionLeng":"2026ko ekitaldian Emakume eta Gizonen arteko Berdintasunaren arloan jarduerak garatze aldera dirulaguntzak emateko Sestaoko Udalak eginiko deialdiaren ","fechaRecepcion":"2026-06-01","nivel1":"LOCAL","nivel2":"SESTAO","nivel3":"AYUNTAMIENTO DE SESTAO","codigoInvente":null},{"id":1111241,"mrr":false,"numeroConvocatoria":"909680","descripcion":"CONVOCATORIA DE SUBVENCIÓN PARA EL FOMENTO DE LA PARTICIPACIÓN EN ACTIVIDADES EXTRAESCOLARES DEL ALUMNADO DE LOS CENTROS EDUCATIVOS DE CAMBRILS SUFRAGADOS CON FONDOS PÚBLICOS, FAVORECIENDO EL ACCESO A FAMILIAS CON MENOS RECURSOS DURANTE EL CURSO 2025-26","descripcionLeng":"CONVOCATÒRIA DE SUBVENCIÓ PER AL FOMENT DE LA PARTICIPACIÓ EN ACTIVITATS EXTRAESCOLARS DE L’ALUMNAT DELS CENTRES EDUCATIUS DE CAMBRILS SUFRAGATS AMB FONS PÚBLICS, AFAVORINT L’ACCÉS A FAMÍLIES AMB MENYS RECURSOS DURANT EL CURS 2025-26","fechaRecepcion":"2026-06-01","nivel1":"LOCAL","nivel2":"CAMBRILS","nivel3":"AYUNTAMIENTO DE CAMBRILS","codigoInvente":null},{"id":1111238,"mrr":false,"numeroConvocatoria":"909677","descripcion":"CONVOCATORIA DE AYUDAS PARA DERECHOS DE MATRÍCULA PARA CURSOS DE IDIOMAS DEL AULA MENTOR DEL AYUNTAMIENTO DE ALFAFAR - EJERCICIO 2026.","descripcionLeng":null,"fechaRecepcion":"2026-06-01","nivel1":"LOCAL","nivel2":"ALFAFAR","nivel3":"AYUNTAMIENTO DE ALFAFAR","codigoInvente":null},{"id":1111234,"mrr":false,"numeroConvocatoria":"909673","descripcion":"Convocatoria de ayudas individuales para la asistencia escolar y para el servicio de comedor fijo de los niños matriculados en las guarderías municipales. Curso 2026-2027","descripcionLeng":"Convocatòria d'ajuts individuals per a l’assistència escolar i per al servei de menjador fix dels infants matriculats a les Escoles Bressol municipals. Curs 2026-2027","fechaRecepcion":"2026-06-01","nivel1":"LOCAL","nivel2":"MATARÓ","nivel3":"AYUNTAMIENTO DE MATARÓ","codigoInvente":null},{"id":1111233,"mrr":false,"numeroConvocatoria":"909672","descripcion":"CONVOCATORIA SUBVENCIONES EN MATERIA DE DEPORTES ANUALIDAD 2026.","descripcionLeng":null,"fechaRecepcion":"2026-06-01","nivel1":"LOCAL","nivel2":"CHICLANA DE LA FRONTERA","nivel3":"AYUNTAMIENTO DE CHICLANA DE LA FRONTERA","codigoInvente":null},{"id":1111224,"mrr":false,"numeroConvocatoria":"909663","descripcion":"Subvención, en régimen de evaluación individualizada, a organizaciones sindicales y entidades sin ánimo de lucro inscritas en el Registro Electrónico de Colaboradores de Extranjería","descripcionLeng":null,"fechaRecepcion":"2026-06-01","nivel1":"AUTONOMICA","nivel2":"COMUNIDAD FORAL DE NAVARRA","nivel3":"DEPARTAMENTO DE VIVIENDA, JUVENTUD Y POLÍTICAS MIGRATORIAS","codigoInvente":null},{"id":1111222,"mrr":false,"numeroConvocatoria":"909661","descripcion":"CONVOCATORIA PARA LA CONCESIÓN DE SUBVENCIONES A ENTIDADES EDUCATIVAS CON SERVICIO DE COMEDOR ESCOLAR PARA ALUMNOS EN RIESGO DE EXCLUSIÓN SOCIAL","descripcionLeng":null,"fechaRecepcion":"2026-06-01","nivel1":"LOCAL","nivel2":"MÁLAGA","nivel3":"AYUNTAMIENTO DE MÁLAGA","codigoInvente":null},{"id":1111216,"mrr":false,"numeroConvocatoria":"909655","descripcion":"AYUDAS UMH PARA EL ESTUDIANTADO ADMITIDO EN UN DOBLE MÁSTER INTERNACIONAL DE LA UMH DURANTE EL AÑO 2025 (Código Subvención: 11-131-4-2026-0174-S)","descripcionLeng":"AJUDES UMH PER A L'ESTUDIANTAT ADMÉS EN UN DOBLE MÀSTER INTERNACIONAL DE LA UMH DURANT L'ANY 2025 (codi de subvenció 11-131-4-2026-0174-S)","fechaRecepcion":"2026-06-01","nivel1":"OTROS","nivel2":"UNIVERSIDAD MIGUEL HERNÁNDEZ DE ELCHE","nivel3":null,"codigoInvente":"INV00005357"},{"id":1111212,"mrr":false,"numeroConvocatoria":"909651","descripcion":"Convocatoria Certamen Nacional de Pintura \"Evaristo Arce Piniella\" 2026","descripcionLeng":null,"fechaRecepcion":"2026-06-01","nivel1":"LOCAL","nivel2":"VILLAVICIOSA","nivel3":"AYUNTAMIENTO DE VILLAVICIOSA","codigoInvente":null},{"id":1111208,"mrr":false,"numeroConvocatoria":"909647","descripcion":"CONVOCATORIA DE SUBVENCIONES EN MATERIA DE PROMOCION DE LAS PERSONAS MAYORES 2026","descripcionLeng":null,"fechaRecepcion":"2026-06-01","nivel1":"LOCAL","nivel2":"MOLLET DEL VALLÈS","nivel3":"AYUNTAMIENTO DE MOLLET DEL VALLÈS","codigoInvente":null},{"id":1111207,"mrr":false,"numeroConvocatoria":"909646","descripcion":"CONVOCATORIA PARA LA CONCESION DE PREMIOS A LOS DEPORTISTAS LOCALES QUE HAYAN PARTICIPADO EN COMPETICIONES DEPORTIVAS OFICIALES LA TEMPORADA 2025-2026","descripcionLeng":null,"fechaRecepcion":"2026-06-01","nivel1":"LOCAL","nivel2":"MOLLET DEL VALLÈS","nivel3":"AYUNTAMIENTO DE MOLLET DEL VALLÈS","codigoInvente":null},{"id":1111206,"mrr":false,"numeroConvocatoria":"909645","descripcion":"CONVOCATORIA DE SUBVENCIONES EN MATERIA DE SENSIBILIZACION POR LA PAZ Y LA SOLIDARIDAD 2026","descripcionLeng":null,"fechaRecepcion":"2026-06-01","nivel1":"LOCAL","nivel2":"MOLLET DEL VALLÈS","nivel3":"AYUNTAMIENTO DE MOLLET DEL VALLÈS","codigoInvente":null},{"id":1111205,"mrr":false,"numeroConvocatoria":"909644","descripcion":"CONVOCATORIA DE SUBVENCIONES EN MATERIA DE ASOCIACIONISMO VECINAL 2026","descripcionLeng":null,"fechaRecepcion":"2026-06-01","nivel1":"LOCAL","nivel2":"MOLLET DEL VALLÈS","nivel3":"AYUNTAMIENTO DE MOLLET DEL VALLÈS","codigoInvente":null},{"id":1111204,"mrr":false,"numeroConvocatoria":"909643","descripcion":"CONVOCATORIA DE SUBVENCIONES EN MATERIA DE PROMOCION DEL DEPORTE 2026","descripcionLeng":null,"fechaRecepcion":"2026-06-01","nivel1":"LOCAL","nivel2":"MOLLET DEL VALLÈS","nivel3":"AYUNTAMIENTO DE MOLLET DEL VALLÈS","codigoInvente":null},{"id":1111203,"mrr":false,"numeroConvocatoria":"909642","descripcion":"CONVOCATORIA DE SUBVENCIONES EN MATERIA DE COOPERACION AL DESARROLLO 2026","descripcionLeng":null,"fechaRecepcion":"2026-06-01","nivel1":"LOCAL","nivel2":"MOLLET DEL VALLÈS","nivel3":"AYUNTAMIENTO DE MOLLET DEL VALLÈS","codigoInvente":null},{"id":1111202,"mrr":false,"numeroConvocatoria":"909641","descripcion":"CONVOCATORIA DE SUBVENCIONES EN MATERIA DE ACTIVIDADES JUVENILES 2026","descripcionLeng":null,"fechaRecepcion":"2026-06-01","nivel1":"LOCAL","nivel2":"MOLLET DEL VALLÈS","nivel3":"AYUNTAMIENTO DE MOLLET DEL VALLÈS","codigoInvente":null},{"id":1111201,"mrr":false,"numeroConvocatoria":"909640","descripcion":"CONVOCATORIA DE SUBVENCIONES EN MATERIA DE ACTIVIDADES CULTURALES 2026","descripcionLeng":null,"fechaRecepcion":"2026-06-01","nivel1":"LOCAL","nivel2":"MOLLET DEL VALLÈS","nivel3":"AYUNTAMIENTO DE MOLLET DEL VALLÈS","codigoInvente":null}],"pageable":{"sort":{"sorted":true,"unsorted":false,"empty":false},"pageNumber":2,"pageSize":50,"offset":100,"unpaged":false,"paged":true},"last":false,"totalElements":10000,"totalPages":200,"sort":{"sorted":true,"unsorted":false,"empty":false},"first":false,"numberOfElements":50,"size":50,"number":2,"empty":false,"advertencia":"La reutilización de los datos del Sistema Nacional de Publicidad de Subvenciones y Ayudas Públicas está sujeta a una serie de restricciones y consideraciones legales. Consulte el aviso legal en https://www.infosubvenciones.es/bdnstrans/GE/es/avisolegal.Además, el usuario debe ser consciente que la información presentada es de naturaleza dinámica, y que los datos pueden ser sometidos a correcciones, inserciones, modificaciones y eliminaciones en momentos posteriores a su extracción. Accesos al API del sistema Nacional de Publicidad de Subvenciones y Ayudas Públicas. La Administración Presupuestaria, para salvaguardar la protección del acceso libre e irrestricto de los ciudadanos a este Portal y a su información podrá adoptar medidas restrictivas de acceso al API ante situaciones de manifiesto abuso del servicio, riesgos de seguridad, o uso fraudulento de la información descargada, de acuerdo con las buenas prácticas de gestión de datos abiertos (https://datos.gob.es/es/blog/limitaciones-la-consulta-de-una-api) establecidas por el Ministerio para la Transformación Digital y de la Función Pública."}