{"content":[{"id":1099236,"mrr":false,"numeroConvocatoria":"897675","descripcion":"Acuerdo AC0000027657 de CGI de 08/04/2026, por el que se convocan Subvenciones para las Iniciativas Empresariales destinadas a la Apertura de Nueva Empresa y/o Locales, convocatoria 2026.","descripcionLeng":null,"fechaRecepcion":"2026-04-08","nivel1":"LOCAL","nivel2":"CABILDO INSULAR DE TENERIFE","nivel3":"CABILDO INSULAR DE TENERIFE","codigoInvente":null},{"id":1099233,"mrr":false,"numeroConvocatoria":"897672","descripcion":"PREMIOS MUJER Y DEPORTE, EJERCICIO 2026","descripcionLeng":null,"fechaRecepcion":"2026-04-08","nivel1":"LOCAL","nivel2":"BURJASSOT","nivel3":"AYUNTAMIENTO DE BURJASSOT","codigoInvente":null},{"id":1099231,"mrr":false,"numeroConvocatoria":"897670","descripcion":"CONVOCATORIA SUBVENCIONES A ENTIDADES SOCIALES SIN FIN DE LUCRO QUE DESARROLLEN ACTIVIDADES DE ACCIÓN SOCIAL 2026","descripcionLeng":null,"fechaRecepcion":"2026-04-08","nivel1":"LOCAL","nivel2":"GETAFE","nivel3":"AYUNTAMIENTO DE GETAFE","codigoInvente":null},{"id":1099230,"mrr":false,"numeroConvocatoria":"897669","descripcion":"CONVOCATORIA DE PREMIOS DESTINADOS A NIÑOS Y NIÑAS QUE PARTICIPAN EN COMPETICIONES DEPORTIVAS, EJERCICIO 2026","descripcionLeng":null,"fechaRecepcion":"2026-04-08","nivel1":"LOCAL","nivel2":"BURJASSOT","nivel3":"AYUNTAMIENTO DE BURJASSOT","codigoInvente":null},{"id":1099229,"mrr":false,"numeroConvocatoria":"897668","descripcion":"Convocatoria de ayudas para inversiones de museos y colecciones museográficas permanentes de Navarra 2026","descripcionLeng":null,"fechaRecepcion":"2026-04-08","nivel1":"AUTONOMICA","nivel2":"COMUNIDAD FORAL DE NAVARRA","nivel3":"DEPARTAMENTO DE CULTURA, DEPORTE Y TURISMO","codigoInvente":null},{"id":1099227,"mrr":false,"numeroConvocatoria":"897666","descripcion":"CONVOCATORIA DE PREMIOS DESTINADOS A ESTUDIOS Y FORMACIÓN EN ENSEÑANZAS ARTÍSTICAS DE MÚSICA Y DANZA, EJERCICIO 2026","descripcionLeng":null,"fechaRecepcion":"2026-04-08","nivel1":"LOCAL","nivel2":"BURJASSOT","nivel3":"AYUNTAMIENTO DE BURJASSOT","codigoInvente":null},{"id":1099226,"mrr":false,"numeroConvocatoria":"897665","descripcion":"Subvención nominativa- Convenio de colaboración con Asoc “Sal de la Fila” para Sufragar los gastos de mantenimiento de su actividad, así como las manifestaciones, actuaciones y/o programas que están dirigidos al fomento, promoción, difusión y la (...)","descripcionLeng":null,"fechaRecepcion":"2026-04-08","nivel1":"LOCAL","nivel2":"VILA-REAL","nivel3":"AYUNTAMIENTO DE VILA-REAL","codigoInvente":null},{"id":1099225,"mrr":false,"numeroConvocatoria":"897664","descripcion":"Resolución de 8 de abril de 2026, de la Universidad Complutense de Madrid, por la que se convocan ayudas para estudiantes afectados por conflictos humanitarios y que sean admitidos para continuar estudios en la Universidad Complutense en el curso 2025-26","descripcionLeng":null,"fechaRecepcion":"2026-04-08","nivel1":"OTROS","nivel2":"UNIVERSIDAD COMPLUTENSE DE MADRID","nivel3":null,"codigoInvente":"INV00005326"},{"id":1099224,"mrr":false,"numeroConvocatoria":"897663","descripcion":"CONVOCATORIA DE SUBVENCIÓN 2026, EN RÉGIMEN DE CONCURRENCIA NO COMPETITIVA, DIRIGIDA A PROPIETARIOS DE VIVIENDAS QUE LAS DESTINEN A LA BOLSA DE MEDIACIÓN PARA EL ALQUILER SOCIAL EN VILADECANS","descripcionLeng":"CONVOCATÒRIA DE SUBVENCIÓ 2026, EN RÈGIM DE CONCURÈNCIA NO COMPETITIVA, ADREÇADA A PROPIETARIS D’HABITATGES QUE ELS DESTININ A LA BORSA DE MEDIACIÓ PER AL LLOGUER SOCIAL A VILADECANS","fechaRecepcion":"2026-04-08","nivel1":"LOCAL","nivel2":"VILADECANS","nivel3":"AYUNTAMIENTO DE VILADECANS","codigoInvente":null},{"id":1099223,"mrr":false,"numeroConvocatoria":"897662","descripcion":"Subvención nominativa- Convenio de colaboración con Asoc Unión Musical “La Lira”de Villarreal para Colaboración económica con destino a la adecuación de las aulas de formación de la sede de la Unión Musical “La Lira” y adquirir equipamientos que (...)","descripcionLeng":null,"fechaRecepcion":"2026-04-08","nivel1":"LOCAL","nivel2":"VILA-REAL","nivel3":"AYUNTAMIENTO DE VILA-REAL","codigoInvente":null},{"id":1099221,"mrr":false,"numeroConvocatoria":"897660","descripcion":"Subvención nominativa- Convenio de colaboración con Asoc Unión Musical “La Lira”de Villarreal para Sufragar los gastos de sostenimiento de su actividad, así como los proyectos, acciones, conductas o situaciones que tengan por objeto fomentar la (...)","descripcionLeng":null,"fechaRecepcion":"2026-04-08","nivel1":"LOCAL","nivel2":"VILA-REAL","nivel3":"AYUNTAMIENTO DE VILA-REAL","codigoInvente":null},{"id":1099219,"mrr":false,"numeroConvocatoria":"897658","descripcion":"QUINTA CONVOCATORIA DE LAS AYUDAS PARA CONTRATACIÓN INDEFINIDA DE PERSONAS DESEMPLEADAS, EN EL MARCO DEL PROGRAMA FSE + PARA CEUTA, PERÍODO 2021-2027, PRIORIDAD 5, OBJETIVO ESPECÍFICO ESO4.1, MEDIDA5.A.02. INSCRITAS EN EL SISTEMA DE GARANTIA JUVENIL","descripcionLeng":null,"fechaRecepcion":"2026-04-08","nivel1":"AUTONOMICA","nivel2":"CIUDAD AUTÓNOMA DE CEUTA","nivel3":"PROCESA SOCIEDAD DE DESARROLLO DE CEUTA","codigoInvente":null},{"id":1099218,"mrr":false,"numeroConvocatoria":"897657","descripcion":"Resolución de 8 de abril de 2026, de la Universidad Complutense de Madrid, por la que se convocan ayudas económicas del programa de acogida a personas refugiadas para la realización de estudios superiores en la UCM en el curso 2025-26","descripcionLeng":null,"fechaRecepcion":"2026-04-08","nivel1":"OTROS","nivel2":"UNIVERSIDAD COMPLUTENSE DE MADRID","nivel3":null,"codigoInvente":"INV00005326"},{"id":1099217,"mrr":false,"numeroConvocatoria":"897656","descripcion":"Subvención nominativa- Convenio de colaboración con Fundacio Coop Vila-real para Financiación o patrocinio de las actividades de carácter cultural, social, deportivo o asistencial que desarrolle la Fundación.","descripcionLeng":null,"fechaRecepcion":"2026-04-08","nivel1":"LOCAL","nivel2":"VILA-REAL","nivel3":"AYUNTAMIENTO DE VILA-REAL","codigoInvente":null},{"id":1099216,"mrr":false,"numeroConvocatoria":"897655","descripcion":"CUARTA CONV DE LAS AYUDAS PARA CONTRATACIÓN INDEFINIDA DE PERSONAS DESEMPLEADAS, EN EL MARCO DEL PROGRAMA FSE + PARA CEUTA, PERÍODO 2021-2027, PRIORIDAD 5, OBJETIVO ESPECÍFICO ESO4.1, MEDIDA5.A.02.JÓVENES INSCRITOS EN EL SISTEMA NACIONAL DE GARANTÍA JUV.","descripcionLeng":null,"fechaRecepcion":"2026-04-08","nivel1":"AUTONOMICA","nivel2":"CIUDAD AUTÓNOMA DE CEUTA","nivel3":"PROCESA SOCIEDAD DE DESARROLLO DE CEUTA","codigoInvente":null},{"id":1099213,"mrr":false,"numeroConvocatoria":"897652","descripcion":"Resolución por la que se publica el crédito disponible, en el ejercicio 2026, para atender las ayudas previstas en el Decreto 104/2025, de 23 de diciembre, de concesión directa de subvenciones en el marco del Programa Retorno del Talento. Reg. 2831.","descripcionLeng":null,"fechaRecepcion":"2026-04-08","nivel1":"AUTONOMICA","nivel2":"CASTILLA-LA MANCHA","nivel3":"DIRECCIÓN GENERAL DE EMPLEO","codigoInvente":null},{"id":1099212,"mrr":false,"numeroConvocatoria":"897651","descripcion":"TERCERA CONVOCATORIA DE LAS AYUDAS PARA CONTRATACIÓN INDEFINIDA DE PERSONAS DESEMPLEADAS, EN EL MARCO DEL PROGRAMA FSE + PARA CEUTA, PERÍODO 2021-2027, PRIORIDAD 5, OBJETIVO ESPECÍFICO ESO4.1, MEDIDA5.A.02.","descripcionLeng":null,"fechaRecepcion":"2026-04-08","nivel1":"AUTONOMICA","nivel2":"CIUDAD AUTÓNOMA DE CEUTA","nivel3":"PROCESA SOCIEDAD DE DESARROLLO DE CEUTA","codigoInvente":null},{"id":1099211,"mrr":false,"numeroConvocatoria":"897650","descripcion":"CONVOCATORIA DE AYUDAS 2026 DESTINADAS A LA REDUCCIÓN, RECICLAJE Y MEJORA DE LA SEPARACIÓN DE RESIDUOS DEL SECTOR COMERCIAL DE VILADECANS QUE EJERCE LA ACTIVIDAD EN LOCALES DE MÁS DE 500 m²","descripcionLeng":"CONVOCATÒRIA D'AJUTS 2026 DESTINATS A LA REDUCCIÓ, RECICLATGE I MILLORA DE LA SEPARACIÓ DE RESIDUS DEL SECTOR COMERCIAL DE VILADECANS QUE EXERCEIX L’ACTIVITAT EN LOCALS DE MÉS DE 500 m2","fechaRecepcion":"2026-04-08","nivel1":"LOCAL","nivel2":"VILADECANS","nivel3":"AYUNTAMIENTO DE VILADECANS","codigoInvente":null},{"id":1099210,"mrr":false,"numeroConvocatoria":"897649","descripcion":"CERTAMEN DE PINTURA RÁPIDA AL AIRE LIBRE \"BARRIOS Y PUEBLOS CON HISTORIA DE ARUCAS: MONTAÑA DE CARDONES, SANTIDAD Y BAÑADEROS\" 2026","descripcionLeng":null,"fechaRecepcion":"2026-04-08","nivel1":"LOCAL","nivel2":"ARUCAS","nivel3":"AYUNTAMIENTO DE ARUCAS","codigoInvente":null},{"id":1099209,"mrr":false,"numeroConvocatoria":"897648","descripcion":"SEXTA CONVOCATORIA DE LAS AYUDAS PARA CONTRATACIÓN INDEFINIDA DE PERSONAS DESEMPLEADAS, EN EL MARCO DEL PROGRAMA FSE + PARA CEUTA, PERÍODO 2021-2027, PRIORIDAD 1, OBJETIVO ESPECÍFICO ESO4.1, MEDIDA1.A.03.","descripcionLeng":null,"fechaRecepcion":"2026-04-08","nivel1":"AUTONOMICA","nivel2":"CIUDAD AUTÓNOMA DE CEUTA","nivel3":"PROCESA SOCIEDAD DE DESARROLLO DE CEUTA","codigoInvente":null},{"id":1099208,"mrr":false,"numeroConvocatoria":"897647","descripcion":"Subvenciones de concurrencia no competitiva para obras de arreglo de viviendas vacías para destinarlo al alquiler dentro de la bolsa de viviendas de la Oficina Municipal 2026","descripcionLeng":"Subvencions de concurrencia no competitiva per a obres d'arranjament d'habitatges buits per a destinar-los al lloguer dins de la borsa\nd'habitatges de l'Oficina Municipal 2026","fechaRecepcion":"2026-04-08","nivel1":"LOCAL","nivel2":"VILA-SECA","nivel3":"AYUNTAMIENTO DE VILA-SECA","codigoInvente":null},{"id":1099206,"mrr":false,"numeroConvocatoria":"897645","descripcion":"Subvención nominativa- Convenio de colaboración con Ayuntamiento de Benicàssim para Certamen Francisco Tárrega","descripcionLeng":null,"fechaRecepcion":"2026-04-08","nivel1":"LOCAL","nivel2":"VILA-REAL","nivel3":"AYUNTAMIENTO DE VILA-REAL","codigoInvente":null},{"id":1099205,"mrr":false,"numeroConvocatoria":"897644","descripcion":"Resolución por la que se publica el crédito disponible, en el ejercicio 2026, para atender las ayudas previstas en el Decreto 104/2025, de 23 de diciembre, de concesión directa de subvenciones en el marco del Programa Retorno del Talento. Reg. 2832.","descripcionLeng":null,"fechaRecepcion":"2026-04-08","nivel1":"AUTONOMICA","nivel2":"CASTILLA-LA MANCHA","nivel3":"DIRECCIÓN GENERAL DE EMPLEO","codigoInvente":null},{"id":1099204,"mrr":false,"numeroConvocatoria":"897643","descripcion":"QUINTA CONVOCATORIA DE LAS AYUDAS PARA CONTRATACIÓN INDEFINIDA DE PERSONAS DESEMPLEADAS, EN EL MARCO DEL PROGRAMA FSE + PARA CEUTA, PERÍODO 2021-2027, PRIORIDAD 1, OBJETIVO ESPECÍFICO ESO4.1, MEDIDA1.A.03.","descripcionLeng":null,"fechaRecepcion":"2026-04-08","nivel1":"AUTONOMICA","nivel2":"CIUDAD AUTÓNOMA DE CEUTA","nivel3":"PROCESA SOCIEDAD DE DESARROLLO DE CEUTA","codigoInvente":null},{"id":1099203,"mrr":false,"numeroConvocatoria":"897642","descripcion":"Subvención nominativa- Convenio de colaboración con Grup per la Recerca de la Memòria Històrica de Castelló para Convenio para la colaboración en los gastos de sostenimiento de las acciones y actividades de memoria, dignidad, reparación, recuperación(...)","descripcionLeng":null,"fechaRecepcion":"2026-04-08","nivel1":"LOCAL","nivel2":"VILA-REAL","nivel3":"AYUNTAMIENTO DE VILA-REAL","codigoInvente":null},{"id":1099201,"mrr":false,"numeroConvocatoria":"897640","descripcion":"PREMIOS IX RUTA DE LA TAPA 2026","descripcionLeng":"PREMIS IX RUTA DE LA TAPA 2026","fechaRecepcion":"2026-04-08","nivel1":"LOCAL","nivel2":"ALGEMESÍ","nivel3":"AYUNTAMIENTO DE ALGEMESÍ","codigoInvente":null},{"id":1099200,"mrr":false,"numeroConvocatoria":"897639","descripcion":"Subvención nominativa- Convenio de colaboración con Universitat Jaume I de Castellón CAV para Renovación  de la cátedra de mediación policial “Ciutat de Vila-real” con la Universidad Jaume I de Castellón.","descripcionLeng":null,"fechaRecepcion":"2026-04-08","nivel1":"LOCAL","nivel2":"VILA-REAL","nivel3":"AYUNTAMIENTO DE VILA-REAL","codigoInvente":null},{"id":1099199,"mrr":false,"numeroConvocatoria":"897638","descripcion":"CUARTA CONVOCATORIA DE LAS AYUDAS PARA CONTRATACIÓN INDEFINIDA DE PERSONAS DESEMPLEADAS, EN EL MARCO DEL PROGRAMA FSE + PARA CEUTA, PERÍODO 2021-2027, PRIORIDAD 1, OBJETIVO ESPECÍFICO ESO4.1, MEDIDA1.A.03.","descripcionLeng":null,"fechaRecepcion":"2026-04-08","nivel1":"AUTONOMICA","nivel2":"CIUDAD AUTÓNOMA DE CEUTA","nivel3":"PROCESA SOCIEDAD DE DESARROLLO DE CEUTA","codigoInvente":null},{"id":1099198,"mrr":false,"numeroConvocatoria":"897637","descripcion":"Ayudas 2026  Enfoque Leader a inversiones en la creación y desarrollo de empresas y actividades no agrícolas en zonas rurales (Intervención 7119 PEPAC), s/ II Convo (PEPAC 2023-2027) G.A.L. DIVA","descripcionLeng":null,"fechaRecepcion":"2026-04-08","nivel1":"AUTONOMICA","nivel2":"EXTREMADURA","nivel3":"DIRECCIÓN GENERAL DE DESARROLLO RURAL","codigoInvente":null},{"id":1099197,"mrr":false,"numeroConvocatoria":"897636","descripcion":"CONVOCATORIA DE AYUDAS 2026 DESTINADAS A LA REDUCCIÓN, RECICLAJE Y MEJORA DE LA SEPARACIÓN DE RESIDUOS DEL SECTOR COMERCIAL DE VILADECANS QUE EJERCE LA ACTIVIDAD EN LOCALES DE 201 m² A 500 m²","descripcionLeng":"CONVOCATÒRIA D'AJUTS 2026 DESTINATS A LA REDUCCIÓ, RECICLATGE I MILLORA DE LA SEPARACIÓ DE RESIDUS DEL SECTOR COMERCIAL DE VILADECANS QUE EXERCEIX L’ACTIVITAT EN LOCALS DE 201 m2 FINS A 500 m2","fechaRecepcion":"2026-04-08","nivel1":"LOCAL","nivel2":"VILADECANS","nivel3":"AYUNTAMIENTO DE VILADECANS","codigoInvente":null},{"id":1099196,"mrr":false,"numeroConvocatoria":"897635","descripcion":"Ayudas 2026  Enfoque Leader a inversiones  en transformación y comercialización de productos agrícolas. NO Ayudas Estado.(Interv, 7119 PEPAC), s/ II Convo  (PEPAC 2023-2027) G.A.L. DIVA","descripcionLeng":null,"fechaRecepcion":"2026-04-08","nivel1":"AUTONOMICA","nivel2":"EXTREMADURA","nivel3":"DIRECCIÓN GENERAL DE DESARROLLO RURAL","codigoInvente":null},{"id":1099194,"mrr":false,"numeroConvocatoria":"897633","descripcion":"Ayudas 2026  Enfoque Leader a inversiones en transformación y comercialización de productos agrícolas.Ayudas Estado(Intervención 7119 PEPAC), s/ II Convo (PEPAC 2023-2027) G.A.L. DIVA","descripcionLeng":null,"fechaRecepcion":"2026-04-08","nivel1":"AUTONOMICA","nivel2":"EXTREMADURA","nivel3":"DIRECCIÓN GENERAL DE DESARROLLO RURAL","codigoInvente":null},{"id":1099193,"mrr":false,"numeroConvocatoria":"897632","descripcion":"Subvención nominativa- Convenio de colaboración con Universitat Jaume I de Castellón CAV para Renovación de la cátedra de innovación cerámica “Ciutat de Vila-real” de la Universitat Jaume","descripcionLeng":null,"fechaRecepcion":"2026-04-08","nivel1":"LOCAL","nivel2":"VILA-REAL","nivel3":"AYUNTAMIENTO DE VILA-REAL","codigoInvente":null},{"id":1099192,"mrr":false,"numeroConvocatoria":"897631","descripcion":"Res 08/04/2026 de la Dirección del Centro de Estudios Jurídicos por la que se convocan en el 2026 ayudas para la preparación de oposiciones para el ingreso en las Carreras Judicial y Fiscal, Cuerpos de Letrados de la Admón Justicia y Abogados del Estado","descripcionLeng":null,"fechaRecepcion":"2026-04-08","nivel1":"ESTADO","nivel2":"MINISTERIO DE LA PRESIDENCIA, JUSTICIA Y RELACIONES CON LAS CORTES","nivel3":"CENTRO DE ESTUDIOS JURÍDICOS","codigoInvente":"INV00001118"},{"id":1099191,"mrr":false,"numeroConvocatoria":"897630","descripcion":"Resolución por la que se publica el crédito disponible, en el ejercicio 2026, para atender las ayudas previstas en el Decreto 104/2025, de 23 de diciembre, de concesión directa de subvenciones en el marco del Programa Retorno del Talento. Reg. 1408.","descripcionLeng":null,"fechaRecepcion":"2026-04-08","nivel1":"AUTONOMICA","nivel2":"CASTILLA-LA MANCHA","nivel3":"DIRECCIÓN GENERAL DE EMPLEO","codigoInvente":null},{"id":1099189,"mrr":false,"numeroConvocatoria":"897628","descripcion":"SEPTIMA CONV DE AYUDAS PARA “CREACIÓN Y/O MODERNIZACIÓN DE PROYECTOS EMPRESARIALES INNOVADORES FEDER CEUTA 2021-2027 OBJETIVO POLÍTICO 1.OBJETIVO\nESPECÍFICO 1.3.","descripcionLeng":null,"fechaRecepcion":"2026-04-08","nivel1":"AUTONOMICA","nivel2":"CIUDAD AUTÓNOMA DE CEUTA","nivel3":"PROCESA SOCIEDAD DE DESARROLLO DE CEUTA","codigoInvente":null},{"id":1099187,"mrr":false,"numeroConvocatoria":"897626","descripcion":"CONVOCATORIA DE AYUDAS 2026 DESTINADAS A LA REDUCCIÓN, RECICLAJE Y MEJORA DE LA SEPARACIÓN DE RESIDUOS DEL SECTOR COMERCIAL DE VILADECANS QUE EJERCE LA ACTIVIDAD EN LOCALES DE 121 m² A 200 m²","descripcionLeng":"CONVOCATÒRIA D'AJUTS 2026 DESTINATS A LA REDUCCIÓ, RECICLATGE I MILLORA DE LA SEPARACIÓ DE RESIDUS DEL SECTOR COMERCIAL DE VILADECANS QUE EXERCEIX L’ACTIVITAT EN LOCALS DE 121 m2 FINS A 200 m2","fechaRecepcion":"2026-04-08","nivel1":"LOCAL","nivel2":"VILADECANS","nivel3":"AYUNTAMIENTO DE VILADECANS","codigoInvente":null},{"id":1099186,"mrr":false,"numeroConvocatoria":"897625","descripcion":"SEXTA CONV DE AYUDAS PARA “CREACIÓN Y/O MODERNIZACIÓN DE PROYECTOS EMPRESARIALES INNOVADORES FEDER CEUTA 2021-2027 OBJETIVO POLÍTICO 1.OBJETIVO ESPECÍFICO 1.3.","descripcionLeng":null,"fechaRecepcion":"2026-04-08","nivel1":"AUTONOMICA","nivel2":"CIUDAD AUTÓNOMA DE CEUTA","nivel3":"PROCESA SOCIEDAD DE DESARROLLO DE CEUTA","codigoInvente":null},{"id":1099184,"mrr":false,"numeroConvocatoria":"897623","descripcion":"CONVOCATORIA DE SUBVENCIÓN, EN RÉGIMEN DE CONCURRENCIA NO COMPETITIVA, DE AYUDAS PARA FAMILIAS MONOPARENTALES Y/O FAMILIAS CON HIJOS CON DIVERSIDAD FUNCIONAL, DEL AYUNTAMIENTO DE VILADECANS","descripcionLeng":"CONVOCATÒRIA DE SUBVENCIÓ, EN RÈGIM DE CONCURRÈNCIA NO COMPETITIVA, D’AJUTS PER FAMÍLIES MONOPARENTALS I/O FAMÍLIES AMB FILLS AMB DIVERSITAT FUNCIONAL, DE L’AJUNTAMENT DE VILADECANS","fechaRecepcion":"2026-04-08","nivel1":"LOCAL","nivel2":"VILADECANS","nivel3":"AYUNTAMIENTO DE VILADECANS","codigoInvente":null},{"id":1099183,"mrr":false,"numeroConvocatoria":"897622","descripcion":"Subvención nominativa- Convenio de colaboración con Universitat Jaume I de Castellón CAV para Convenio UJI Subsede-Favorecer la integración de la universidad más allá de su campus universitario, de manera que los ciudadanos de la ciudad de Vila-real (...)","descripcionLeng":null,"fechaRecepcion":"2026-04-08","nivel1":"LOCAL","nivel2":"VILA-REAL","nivel3":"AYUNTAMIENTO DE VILA-REAL","codigoInvente":null},{"id":1099182,"mrr":false,"numeroConvocatoria":"897621","descripcion":"Resolución por la que se publica el crédito disponible, en el ejercicio 2026, para atender las ayudas previstas en el Decreto 104/2025, de 23 de diciembre, de concesión directa de subvenciones en el marco del Programa Retorno del Talento. Reg. 717.","descripcionLeng":null,"fechaRecepcion":"2026-04-08","nivel1":"AUTONOMICA","nivel2":"CASTILLA-LA MANCHA","nivel3":"DIRECCIÓN GENERAL DE EMPLEO","codigoInvente":null},{"id":1099180,"mrr":false,"numeroConvocatoria":"897619","descripcion":"APROBACIÓN DE LA CONVOCATORIA DE SUBVENCIONES PARA ENTIDADES LOCALES DE MENOS DE 5.000 HABITANTES DE LA PROVINCIA DE GRANADA PARA LA PROMOCIÓN Y EL FOMENTO DE LA ACTIVIDAD EMPRESARIAL DESARROLLADA POR MUJERES EN RÉGIMEN DE CONCURRENCIA COMPETITIVA, 2026","descripcionLeng":null,"fechaRecepcion":"2026-04-08","nivel1":"LOCAL","nivel2":"DIPUTACIÓN PROV. DE GRANADA","nivel3":"DIPUTACIÓN PROVINCIAL DE GRANADA","codigoInvente":null},{"id":1099179,"mrr":false,"numeroConvocatoria":"897618","descripcion":"QUINTA CONV DE AYUDAS PARA “CREACIÓN Y/O MODERNIZACIÓN DE PROYECTOS EMPRESARIALES INNOVADORES PROGRAMA FEDER CEUTA 2021-2027, OBJ POLÍTICO 1.PROGRAMA DE INCENTIVOS PARA LA CREACIÓN Y/O AMPLIACIÓN DE PROYECTOS EMPRESARIALES INNOVADORES OBJ ESPECÍFICO 1.3","descripcionLeng":null,"fechaRecepcion":"2026-04-08","nivel1":"AUTONOMICA","nivel2":"CIUDAD AUTÓNOMA DE CEUTA","nivel3":"PROCESA SOCIEDAD DE DESARROLLO DE CEUTA","codigoInvente":null},{"id":1099177,"mrr":false,"numeroConvocatoria":"897616","descripcion":"Subvención nominativa- Convenio de colaboración con Consorcio universitario del centro asociado a la U.N.E.D “Cardenal Tarancón” para Desarrollo cursos de formación Senior, Curso Internacional de Interpretación Musical Francisco Tárrega y/o otras (...)","descripcionLeng":null,"fechaRecepcion":"2026-04-08","nivel1":"LOCAL","nivel2":"VILA-REAL","nivel3":"AYUNTAMIENTO DE VILA-REAL","codigoInvente":null},{"id":1099174,"mrr":false,"numeroConvocatoria":"897613","descripcion":"CONVOCATORIA DE AYUDAS 2026 DESTINADAS A LA REDUCCIÓN, RECICLAJE Y MEJORA DE LA SEPARACIÓN DE RESIDUOS DEL SECTOR COMERCIAL DE VILADECANS QUE EJERCE LA ACTIVIDAD EN LOCALES DE 61 m² A 120 m²","descripcionLeng":"CONVOCATÒRIA D'AJUTS 2026 DESTINATS A LA REDUCCIÓ, RECICLATGE I MILLORA DE LA SEPARACIÓ DE RESIDUS DEL SECTOR COMERCIAL DE VILADECANS QUE EXERCEIX L’ACTIVITAT EN LOCALS DE 61 m2 FINS A 120 m2","fechaRecepcion":"2026-04-08","nivel1":"LOCAL","nivel2":"VILADECANS","nivel3":"AYUNTAMIENTO DE VILADECANS","codigoInvente":null},{"id":1099173,"mrr":false,"numeroConvocatoria":"897612","descripcion":"Convocatoria de ayudas para funcionamiento de museos y colecciones museográficas permanentes de Navarra 2026","descripcionLeng":null,"fechaRecepcion":"2026-04-08","nivel1":"AUTONOMICA","nivel2":"COMUNIDAD FORAL DE NAVARRA","nivel3":"DEPARTAMENTO DE CULTURA, DEPORTE Y TURISMO","codigoInvente":null},{"id":1099171,"mrr":false,"numeroConvocatoria":"897610","descripcion":"SEGUNDA CONV DE  AYUDAS PARA FOMENTAR LAS ACTIVIDADES DE EMPRESAS INNOVADORAS DE BASE\nTECNOLÓGICA (START-UP), FEDER 2021-2027, OBJETIVO POLÍTICO 1OBJETIVO ESPECÍFICO 1.3","descripcionLeng":null,"fechaRecepcion":"2026-04-08","nivel1":"AUTONOMICA","nivel2":"CIUDAD AUTÓNOMA DE CEUTA","nivel3":"PROCESA SOCIEDAD DE DESARROLLO DE CEUTA","codigoInvente":null},{"id":1099168,"mrr":false,"numeroConvocatoria":"897607","descripcion":"Subvención nominativa- Convenio de colaboración con Associació Cultural “Socarrats” para Ayudar a sufragar los gastos de sostenimiento de su actividad, así como la realización de actividades dirigidas al fomento y difusión de la cultura, a través de (...)","descripcionLeng":null,"fechaRecepcion":"2026-04-08","nivel1":"LOCAL","nivel2":"VILA-REAL","nivel3":"AYUNTAMIENTO DE VILA-REAL","codigoInvente":null},{"id":1099166,"mrr":false,"numeroConvocatoria":"897605","descripcion":"APROBACIÓN CONVOCATORIA DE SUBVENCIONES PARA CURSOS DE FORMACIÓN DE BANDAS DE MÚSICA DE LA PROVINCIA DE TERUEL 2026.","descripcionLeng":null,"fechaRecepcion":"2026-04-08","nivel1":"LOCAL","nivel2":"DIPUTACIÓN PROV. DE TERUEL","nivel3":"DIPUTACIÓN PROVINCIAL DE TERUEL","codigoInvente":null},{"id":1099165,"mrr":false,"numeroConvocatoria":"897604","descripcion":"ORDEN DEL MINISTRO DE CULTURA POR LA QUE SE CONVOCAN LAS BECAS DEL MINISTERIO DE CULTURA / FULBRIGHT PARA LA AMPLIACIÓN DE ESTUDIOS ARTÍSTICOS EN LOS ESTADOS UNIDOS DE AMÉRICA (CURSO 2026-2027)","descripcionLeng":null,"fechaRecepcion":"2026-04-08","nivel1":"ESTADO","nivel2":"MINISTERIO DE CULTURA","nivel3":"S.G. DE RELACIONES INTERNACIONALES Y UNIÓN EUROPEA","codigoInvente":null}],"pageable":{"sort":{"sorted":true,"unsorted":false,"empty":false},"pageNumber":50,"pageSize":50,"offset":2500,"unpaged":false,"paged":true},"last":false,"totalElements":10000,"totalPages":200,"first":false,"sort":{"sorted":true,"unsorted":false,"empty":false},"numberOfElements":50,"size":50,"number":50,"empty":false,"advertencia":"La reutilización de los datos del Sistema Nacional de Publicidad de Subvenciones y Ayudas Públicas está sujeta a una serie de restricciones y consideraciones legales. Consulte el aviso legal en https://www.infosubvenciones.es/bdnstrans/GE/es/avisolegal.Además, el usuario debe ser consciente que la información presentada es de naturaleza dinámica, y que los datos pueden ser sometidos a correcciones, inserciones, modificaciones y eliminaciones en momentos posteriores a su extracción. Accesos al API del sistema Nacional de Publicidad de Subvenciones y Ayudas Públicas. La Administración Presupuestaria, para salvaguardar la protección del acceso libre e irrestricto de los ciudadanos a este Portal y a su información podrá adoptar medidas restrictivas de acceso al API ante situaciones de manifiesto abuso del servicio, riesgos de seguridad, o uso fraudulento de la información descargada, de acuerdo con las buenas prácticas de gestión de datos abiertos (https://datos.gob.es/es/blog/limitaciones-la-consulta-de-una-api) establecidas por el Ministerio para la Transformación Digital y de la Función Pública."}