{"content":[{"id":1100988,"mrr":false,"numeroConvocatoria":"899427","descripcion":"Convocatoria para la concesión de subvenciones municipales destinadas al fomento del asociacionismo y promoción del tejido asociativo 2026.","descripcionLeng":null,"fechaRecepcion":"2026-04-16","nivel1":"LOCAL","nivel2":"XIRIVELLA","nivel3":"AYUNTAMIENTO DE XIRIVELLA","codigoInvente":null},{"id":1100984,"mrr":false,"numeroConvocatoria":"899423","descripcion":"Ayudas por nacimiento de hijos durante el año 2025, a conceder en el año 2026","descripcionLeng":null,"fechaRecepcion":"2026-04-16","nivel1":"LOCAL","nivel2":"FUENSALDAÑA","nivel3":"AYUNTAMIENTO DE FUENSALDAÑA","codigoInvente":null},{"id":1100983,"mrr":false,"numeroConvocatoria":"899422","descripcion":"CONVOCATORIA ABIERTA y CONCESIÓN DIRECTA de subvención para la mejora de la eficiencia energética y de las instalaciones térmicas de viviendas y comunidades de propietarios  y para la renovación y adquisición de electrodomésticos en viviendas. Año 2026.","descripcionLeng":null,"fechaRecepcion":"2026-04-16","nivel1":"LOCAL","nivel2":"TRILLO","nivel3":"AYUNTAMIENTO DE TRILLO","codigoInvente":null},{"id":1100978,"mrr":false,"numeroConvocatoria":"899417","descripcion":"CONVOCATORIA DE LAS SUBVENCIONES PARA EL AUTOEMPLEO Y PARA FAVORECER LA INSTALACIÓN DE ACTIVIDADES ECONÓMICAS EN ESPLUGUES DE LLOBREGAT (AÑO 2026)","descripcionLeng":null,"fechaRecepcion":"2026-04-16","nivel1":"LOCAL","nivel2":"ESPLUGUES DE LLOBREGAT","nivel3":"AYUNTAMIENTO DE ESPLUGUES DE LLOBREGAT","codigoInvente":null},{"id":1100977,"mrr":false,"numeroConvocatoria":"899416","descripcion":"CONVOCATORIA DE SUBVENCIONES DE PROYECTOS CULTURALES: PROGRAMA SOMOS PUEBLO, SOMOS CULTURA 2026","descripcionLeng":null,"fechaRecepcion":"2026-04-16","nivel1":"LOCAL","nivel2":"DIPUTACIÓN PROV. DE CÓRDOBA","nivel3":"DIPUTACIÓN PROVINCIAL DE CÓRDOBA","codigoInvente":null},{"id":1100975,"mrr":false,"numeroConvocatoria":"899414","descripcion":"Proyectos culturales relevantes en los municipios de entre 20.000 y 50.000 habitantes.","descripcionLeng":null,"fechaRecepcion":"2026-04-16","nivel1":"LOCAL","nivel2":"DIPUTACIÓN PROV. DE CÓRDOBA","nivel3":"DIPUTACIÓN PROVINCIAL DE CÓRDOBA","codigoInvente":null},{"id":1100974,"mrr":false,"numeroConvocatoria":"899413","descripcion":"Ayudas 2026 de la Línea 2 a municipios y Entidades locales menores para la realización de actuaciones en bienes inmuebles integrantes del patrimonio histórico y cultural de Extremadura , según Resolución 07/04/2026 que convoca","descripcionLeng":null,"fechaRecepcion":"2026-04-16","nivel1":"AUTONOMICA","nivel2":"EXTREMADURA","nivel3":"DIRECCIÓN GENERAL DE BIBLIOTECAS, ARCHIVOS Y PATRIMONIO CULTURAL","codigoInvente":null},{"id":1100973,"mrr":false,"numeroConvocatoria":"899412","descripcion":"Ayudas 2026 de la Línea 3 a municipios y Entidades locales menores para la realización de actuaciones en bienes inmuebles integrantes del patrimonio histórico y cultural de Extremadura , según Resolución 07/04/2026 que convoca","descripcionLeng":null,"fechaRecepcion":"2026-04-16","nivel1":"AUTONOMICA","nivel2":"EXTREMADURA","nivel3":"DIRECCIÓN GENERAL DE BIBLIOTECAS, ARCHIVOS Y PATRIMONIO CULTURAL","codigoInvente":null},{"id":1100970,"mrr":false,"numeroConvocatoria":"899409","descripcion":" Subvenciones 2026 Línea II: desarrollo proyectos de prevención y erradicación en materia de trata, explotación sexual y mujeres en contexto de prostitución, según Resolución del 14 de abril de 2026 que las convoca","descripcionLeng":null,"fechaRecepcion":"2026-04-16","nivel1":"AUTONOMICA","nivel2":"EXTREMADURA","nivel3":"INSTITUTO DE LA MUJER DE EXTREMADURA","codigoInvente":"INV00003696"},{"id":1100969,"mrr":false,"numeroConvocatoria":"899408","descripcion":"Subvenciones 2026 Línea I: desarrollo proyectos dirigidos a promoción la igualdad y participación social en ámbito de la igualdad entre mujeres y hombres y la prevención la violencia de género, según resolución del 14 de abril de 2026 que las convoca.","descripcionLeng":null,"fechaRecepcion":"2026-04-16","nivel1":"AUTONOMICA","nivel2":"EXTREMADURA","nivel3":"INSTITUTO DE LA MUJER DE EXTREMADURA","codigoInvente":"INV00003696"},{"id":1100968,"mrr":false,"numeroConvocatoria":"899407","descripcion":"Colaboración Cultural con los municipios y entidades locales","descripcionLeng":null,"fechaRecepcion":"2026-04-16","nivel1":"LOCAL","nivel2":"DIPUTACIÓN PROV. DE CÓRDOBA","nivel3":"DIPUTACIÓN PROVINCIAL DE CÓRDOBA","codigoInvente":null},{"id":1100966,"mrr":false,"numeroConvocatoria":"899405","descripcion":"Gymkana Els Secrets Medievals","descripcionLeng":null,"fechaRecepcion":"2026-04-16","nivel1":"LOCAL","nivel2":"PALAU-SOLITÀ I PLEGAMANS","nivel3":"AYUNTAMIENTO DE PALAU-SOLITÀ I PLEGAMANS","codigoInvente":null},{"id":1100963,"mrr":false,"numeroConvocatoria":"899402","descripcion":"Resolución de 14 de abril de 2026, de la presidenta del IVACE, por la que se convocan las Becas IVACE Exterior 2027 en materias relacionadas con la internacionalización de las empresas dirigidas a personas con titulación universitaria","descripcionLeng":"Resolució de 14 d'abril de 2026, de la presidenta de l'IVACE, per la qual es convoquen les Beques IVACE Exterior 2027 en matèries relacionades amb la internacionalització de les empreses dirigides a persones amb titulació universitària","fechaRecepcion":"2026-04-16","nivel1":"AUTONOMICA","nivel2":"COMUNITAT VALENCIANA","nivel3":"INSTITUTO VALENCIANO DE COMPETITIVIDAD EMPRESARIAL (IVACE)","codigoInvente":"INV00003755"},{"id":1100962,"mrr":false,"numeroConvocatoria":"899401","descripcion":"CRITERIOS ESPECÍFICOS DE LA CONVOCATORIA DE LAS AYUDAS PARA EL FOMENTO DE LA ACTIVIDAD ECONÓMICA Y EL EMPLEO PARA EL EJERCICIO 2026. LINEA 2.- AYUDAS A LA CREACIÓN DE NUEVAS EMPRESAS","descripcionLeng":null,"fechaRecepcion":"2026-04-16","nivel1":"LOCAL","nivel2":"EJEA DE LOS CABALLEROS","nivel3":"AYUNTAMIENTO DE EJEA DE LOS CABALLEROS","codigoInvente":null},{"id":1100961,"mrr":false,"numeroConvocatoria":"899400","descripcion":"Convocatoria de subvenciones destinadas a entidades deportivas del municipio para el desarrollo de sus actividades durante el año 2026.","descripcionLeng":"Udalerriko kirol entitateentzako dirulaguntzen deialdia, 2026. urtean jarduerak\ngara ditzaten.","fechaRecepcion":"2026-04-16","nivel1":"LOCAL","nivel2":"LEZAMA","nivel3":"AYUNTAMIENTO DE LEZAMA","codigoInvente":null},{"id":1100960,"mrr":false,"numeroConvocatoria":"899399","descripcion":"Convocatoria Colaboraciones de Cooperación UJI para personal de países y territorios prioritarios– 2ª edición (GVA-UNICOP/2025/001)","descripcionLeng":"Convocatòria Colaboracions de Cooperació UJI per a personal de països i territoris prioritaris 2a edició (GVA UNICOP/2025/001)","fechaRecepcion":"2026-04-16","nivel1":"OTROS","nivel2":"UNIVERSIDAD JAUME I DE CASTELLÓN","nivel3":null,"codigoInvente":"INV00005381"},{"id":1100959,"mrr":false,"numeroConvocatoria":"899398","descripcion":"Decreto Foral 37/2026, de 16 de abril, por el que se establecen las bases y convocatoria reguladora de la concesión de subvenciones para los compromisos agroambientales en el Territorio Histórico de Bizkaia, para 2026","descripcionLeng":"37/2026, apirilaren 1eko, Foru Dekretua. Honen bidez, 2026rako Bizkaiko Lurralde Historikoan nekazaritza eta ingurumeneko konpro misoetarako dirulaguntzak emateko oinarriak eta deialdia ezartzen dituena","fechaRecepcion":"2026-04-16","nivel1":"LOCAL","nivel2":"DIPUTACIÓN FORAL DE BIZKAIA","nivel3":"DIPUTACIÓN FORAL DE BIZKAIA","codigoInvente":null},{"id":1100956,"mrr":false,"numeroConvocatoria":"899395","descripcion":"subvenciones destinadas a las entidades socio-culturales del municipio para el desarrollo de sus actividades durante el año 2026.","descripcionLeng":"Udalerriko gizarte eta kultur entitateentzako dirulaguntzen deialdia, 2026. urtean jarduerak gara ditzaten.","fechaRecepcion":"2026-04-16","nivel1":"LOCAL","nivel2":"LEZAMA","nivel3":"AYUNTAMIENTO DE LEZAMA","codigoInvente":null},{"id":1100955,"mrr":false,"numeroConvocatoria":"899394","descripcion":"AYUDAS PARA MATERIAL ESCOLAR, TRANSPORTE Y REDUCCIÓN DE LA BRECHA DIGITAL DE ESTUDIANTES PARA EL CURSO 2026-2027","descripcionLeng":"AXUDAS PARA MATERIAL ESCOLAR, TRANSPORTE E REDUCIÓN DA FENDA DIXITAL DE ESTUDANTES PARA O CURSO 2026-2027","fechaRecepcion":"2026-04-16","nivel1":"LOCAL","nivel2":"GUITIRIZ","nivel3":"AYUNTAMIENTO DE GUITIRIZ","codigoInvente":null},{"id":1100953,"mrr":false,"numeroConvocatoria":"899392","descripcion":"DECRETO FORAL 36/2026, de 16 de abril,de la Diputación Foral de Bizkaia, para ayudas compensatorias al sector agrario en zonas de Agricultura de Montaña y en otras zonas desfavorecidas en el THB y se efectúa convocatoria para 2026","descripcionLeng":"Bizkaiko Foru Aldundiaren 36/2026, apirilaren 1eko, FORU DEKRETUA. Honen bidez, konpentsazio-laguntza batzuk ezartzen dira Bizkaiko Lurralde Historikoko mendi-nekazaritzako eremuetako eta beste alde behartsu batzuetako nekazaritza-sektorerako, eta 2026rak","fechaRecepcion":"2026-04-16","nivel1":"LOCAL","nivel2":"DIPUTACIÓN FORAL DE BIZKAIA","nivel3":"DIPUTACIÓN FORAL DE BIZKAIA","codigoInvente":null},{"id":1100952,"mrr":false,"numeroConvocatoria":"899391","descripcion":"AYUDAS MEDIDAS PROTECC DAÑOS POR POBLACIONES LOBO IBERICO 2026","descripcionLeng":null,"fechaRecepcion":"2026-04-16","nivel1":"AUTONOMICA","nivel2":"COMUNIDAD DE MADRID","nivel3":"CONSEJERÍA DE MEDIO AMBIENTE, AGRICULTURA E INTERIOR","codigoInvente":null},{"id":1100949,"mrr":false,"numeroConvocatoria":"899388","descripcion":"Convocatoria de subvenciones a entidades colaboradoras del programa de Vivienda de Alquiler de Integración Social (VAIS) durante 2026","descripcionLeng":null,"fechaRecepcion":"2026-04-16","nivel1":"AUTONOMICA","nivel2":"COMUNIDAD FORAL DE NAVARRA","nivel3":"DEPARTAMENTO DE DERECHOS SOCIALES, ECONOMIA SOCIAL Y EMPLEO","codigoInvente":null},{"id":1100947,"mrr":false,"numeroConvocatoria":"899386","descripcion":"CRITERIOS ESPECÍFICOS DE LA CONVOCATORIA DE LAS AYUDAS PARA EL FOMENTO DE LA ACTIVIDAD ECONÓMICA Y EL EMPLEO PARA EL EJERCICIO 2026. LINEA 1.- AYUDAS DE APOYO A LA ACTIVIDAD ECONÓMICA Y LAS INVERSIONES PRODUCTIVAS DE LAS EMPRESAS","descripcionLeng":null,"fechaRecepcion":"2026-04-16","nivel1":"LOCAL","nivel2":"EJEA DE LOS CABALLEROS","nivel3":"AYUNTAMIENTO DE EJEA DE LOS CABALLEROS","codigoInvente":null},{"id":1100946,"mrr":false,"numeroConvocatoria":"899385","descripcion":"RESOLUCIÓN de 16 abril de 2026 del conseller de Sanidad, por la que se convocan subvenciones destinadas a financiar el tratamiento de lucha contra vectores de relevancia en salud pública en los municipios de la Comunitat Valenciana en el ejercicio 2026.","descripcionLeng":"RESOLUCIÓ de 16 d'abril de 2026 del conseller de Sanitat, per la qual es convoquen subvencions destinades a finançar el tractament de lluita contra vectors de rellevància en salut pública en els municipis de la Comunitat Valenciana en l'exercici 2026.","fechaRecepcion":"2026-04-16","nivel1":"AUTONOMICA","nivel2":"COMUNITAT VALENCIANA","nivel3":"SECRETARÍA AUTONÓMICA DE SALUD PÚBLICA Y DEL SISTEMA SANITARIO PÚBLICO","codigoInvente":null},{"id":1100945,"mrr":false,"numeroConvocatoria":"899384","descripcion":"Convocatoria de dos becas de colaboración para la realización de actividades relacionadas con la difusión del patrimonio histórico-artístico en los edificios universitarios del campus de Toledo. Vicerrectorado de Proyección Universitaria. UCLM. 2026","descripcionLeng":null,"fechaRecepcion":"2026-04-16","nivel1":"OTROS","nivel2":"UNIVERSIDAD DE CASTILLA-LA MANCHA","nivel3":null,"codigoInvente":"INV00005334"},{"id":1100944,"mrr":false,"numeroConvocatoria":"899383","descripcion":"BASES DE LA CONVOCATORIA DE SUBVENCIONES DESTINADAS A LA ORGANIZACIÓN DE ACTIVIDADES EXTRAORDINARIAS, EJERCICIO 2025, REALIZADAS DURANTE  EL AÑO 2025.","descripcionLeng":"BASES DA CONVOCATORIA DE SUBVENCIÓNS DESTINADAS Á ORGANIZACIÓN DE ACTIVIDADES EXTRAORDINARIAS, EXERCICIO 2025, REALIZADAS DURANTE O ANO 2025.","fechaRecepcion":"2026-04-16","nivel1":"LOCAL","nivel2":"VILAGARCÍA DE AROUSA","nivel3":"FUNDACIÓN PÚBLICA DE SERVICIOS DEPORTIVOS MUNICIPALES","codigoInvente":null},{"id":1100940,"mrr":false,"numeroConvocatoria":"899379","descripcion":"II Ed. Premio al mejor trabajo de fin de máster de Enfermería.","descripcionLeng":"II Ed. Premi al millor treball de fi de màster d’Infermeria.","fechaRecepcion":"2026-04-16","nivel1":"OTROS","nivel2":"UNIVERSITAT DE VALÈNCIA (ESTUDI GENERAL)","nivel3":null,"codigoInvente":"INV00005380"},{"id":1100938,"mrr":false,"numeroConvocatoria":"899377","descripcion":"RESOLUCIÓN  del director general de LABORA Servicio Valenciano de Empleo y Formación, por la que se convocan para el ejercicio 2026 las subvenciones destinadas a la contratación de personas desempleadas menores de 30 años por mancomunidades de la Comunita","descripcionLeng":"RESOLUCIÓ  del director general de Labora Servici Valencià d’Ocupació i Formació, per la qual es convoquen per a l’exercici 2026 les subvencions destinades a contractar persones desocupades menors de 30 anys per mancomunitats de la Comunitat Valenciana.","fechaRecepcion":"2026-04-16","nivel1":"AUTONOMICA","nivel2":"COMUNITAT VALENCIANA","nivel3":"DIRECCIÓN GENERAL DE EMPLEO Y FORMACIÓN","codigoInvente":null},{"id":1100937,"mrr":false,"numeroConvocatoria":"899376","descripcion":"Convocatoria para la concesión de subvenciones a proyectos de cooperación al desarrollo año 2026, para entidades con una implantación en el tejido asociativo de la ciudad de Alzira","descripcionLeng":"Convocatòria per a la concessió de subvencions a projectes de cooperació al desenvolupament any 2026, per a entitats amb una implantació en el teixit associatiu de la ciutat d'Alzira","fechaRecepcion":"2026-04-16","nivel1":"LOCAL","nivel2":"ALZIRA","nivel3":"AYUNTAMIENTO DE ALZIRA","codigoInvente":null},{"id":1100935,"mrr":false,"numeroConvocatoria":"899374","descripcion":"CONVOCATORIA PÚBLICA DE SUBVENCIONES PARA LA PROMOCIÓN Y DESARROLLO DE LOS SOPORTES DE PRENSA ESCRITA DE ÁMBITO DISTRITAL O INFERIOR (MEDIOS HIPERLOCALES) PARA LA ANUALIDAD 2026.","descripcionLeng":null,"fechaRecepcion":"2026-04-16","nivel1":"LOCAL","nivel2":"MADRID","nivel3":"ÁREA DE GOBIERNO DE VICEALCALDÍA, PORTAVOZ, SEGURIDAD Y EMERGENCIAS","codigoInvente":null},{"id":1100933,"mrr":false,"numeroConvocatoria":"899372","descripcion":"BASES Y CONVOCATORIA CORRESPONSALES JUVENILES 2026","descripcionLeng":null,"fechaRecepcion":"2026-04-16","nivel1":"LOCAL","nivel2":"NÁQUERA","nivel3":"AYUNTAMIENTO DE NÁQUERA","codigoInvente":null},{"id":1100931,"mrr":false,"numeroConvocatoria":"899370","descripcion":"Resolución de la Secretaría de Estado de Comercio, por la que se aprueba la convocatoria de concesión de ayudas para el año 2026 a las asociaciones/federaciones españolas de exportadores reconocidas como entidades colaboradoras de la Adm. Gral. del Estado","descripcionLeng":null,"fechaRecepcion":"2026-04-16","nivel1":"ESTADO","nivel2":"MINISTERIO DE ECONOMÍA, COMERCIO Y EMPRESA","nivel3":"SECRETARÍA DE ESTADO DE COMERCIO","codigoInvente":null},{"id":1100930,"mrr":false,"numeroConvocatoria":"899369","descripcion":"Resolución del Vicerrector de Política Científica por la que se convocan ayudas para la organización de conferencias y seminarios de investigación de la Universidad de La Rioja (ACO). Convocatoria 2026.","descripcionLeng":null,"fechaRecepcion":"2026-04-16","nivel1":"OTROS","nivel2":"UNIVERSIDAD DE LA RIOJA","nivel3":null,"codigoInvente":"INV00005342"},{"id":1100929,"mrr":false,"numeroConvocatoria":"899368","descripcion":"CONVOCATORIA DE SUBVENCIONES PARA ACTIVIDADES DEPORTIVAS","descripcionLeng":null,"fechaRecepcion":"2026-04-16","nivel1":"LOCAL","nivel2":"MORALEJA","nivel3":"AYUNTAMIENTO DE MORALEJA","codigoInvente":null},{"id":1100927,"mrr":false,"numeroConvocatoria":"899366","descripcion":"Convocatoria Programa Pyme Global 2026 - Visita a la feria JCK SHOW LAS VEGAS (Las Vegas, Nevada, Estados Unidos de América) para empresas de la provincia de Córdoba","descripcionLeng":null,"fechaRecepcion":"2026-04-16","nivel1":"OTROS","nivel2":"CÁMARA DE COMERCIO DE CÓRDOBA","nivel3":null,"codigoInvente":null},{"id":1100925,"mrr":false,"numeroConvocatoria":"899364","descripcion":"BASES REGULADORAS Y CONVOCATORIA DE AYUDAS PARA LA REALIZACIÓN DE ACTIVIDADES DE MEJORA DE LAS CONDICIONES DE SEGURIDAD Y SALUD EN LOS CENTROS Y LUGARES DE TRABAJO DE LOS MUNICIPIOS MENORES DE 2.000 HABITANTES.","descripcionLeng":null,"fechaRecepcion":"2026-04-16","nivel1":"LOCAL","nivel2":"DIPUTACIÓN PROV. DE SEGOVIA","nivel3":"DIPUTACIÓN PROVINCIAL DE SEGOVIA","codigoInvente":null},{"id":1100924,"mrr":false,"numeroConvocatoria":"899363","descripcion":"Resolución 2026/1019 de 13 de abril de 2026. por la que se convoca el concurso literario Julene Azpeitia Literatur Sariak 2026.","descripcionLeng":null,"fechaRecepcion":"2026-04-16","nivel1":"LOCAL","nivel2":"DURANGO","nivel3":"AYUNTAMIENTO DE DURANGO","codigoInvente":null},{"id":1100923,"mrr":false,"numeroConvocatoria":"899362","descripcion":"Resolución del Vicerrector de Política Científica de la Universidad de La Rioja por la que se convocan ayudas para la organización de congresos y reuniones científicas (AOCYRC). Convocatoria 2026.","descripcionLeng":null,"fechaRecepcion":"2026-04-16","nivel1":"OTROS","nivel2":"UNIVERSIDAD DE LA RIOJA","nivel3":null,"codigoInvente":"INV00005342"},{"id":1100920,"mrr":false,"numeroConvocatoria":"899359","descripcion":"XIII Edición del Concurso de Fotografía con el móvil Universidad de Oviedo","descripcionLeng":null,"fechaRecepcion":"2026-04-16","nivel1":"OTROS","nivel2":"UNIVERSIDAD DE OVIEDO","nivel3":null,"codigoInvente":"INV00005347"},{"id":1100914,"mrr":false,"numeroConvocatoria":"899353","descripcion":"Subvenciones, en régimen de concurrencia no competitiva para para la creación y el establecimiento de nuevas empresas en el municipio de Vila-seca (L2: Empresas lideradas por mujeres)","descripcionLeng":"Subvencions, en règim de concurrència no competitiva per a per a la creació i l’establiment de noves empreses al municipi de Vila-seca (L2: Empreses liderades per dones)","fechaRecepcion":"2026-04-16","nivel1":"LOCAL","nivel2":"VILA-SECA","nivel3":"AYUNTAMIENTO DE VILA-SECA","codigoInvente":null},{"id":1100910,"mrr":false,"numeroConvocatoria":"899349","descripcion":"RESOLUCIÓN de fecha de 2026, de la Conselleria de Educación, Cultura y Universidades, por la que se convocan para el año 2026 subvenciones para actuaciones de modernización, conservación, equipamiento y adecuación de infraestructuras de museos y c","descripcionLeng":"RESOLUCIÓ de data de 2026, de la Conselleria d’Educació, Cultura i Universitats, per la qual es convoquen per a l’any 2026 subvencions per a actuacions de modernització, conservació, equipament i adequació d’infraestructures de museus i col·lecc","fechaRecepcion":"2026-04-16","nivel1":"AUTONOMICA","nivel2":"COMUNITAT VALENCIANA","nivel3":"SECRETARÍA AUTONÓMICA DE CULTURA Y DEPORTE","codigoInvente":null},{"id":1100908,"mrr":false,"numeroConvocatoria":"899347","descripcion":"Convocatoria Accede al mercado Estados Unidos","descripcionLeng":null,"fechaRecepcion":"2026-04-16","nivel1":"AUTONOMICA","nivel2":"CASTILLA-LA MANCHA","nivel3":"INSTITUTO DE PROMOCIÓN EXTERIOR DE CASTILLA-LA MANCHA","codigoInvente":null},{"id":1100907,"mrr":false,"numeroConvocatoria":"899346","descripcion":"BASES DE LA CONVOCATORIA DE SUBVENCIONES DESTINADAS AL FOMENTO DEL DEPORTE FEDERADO, EJERCICIO 2025, CORRESPONDIENTE A LA TEMPORADA 2024/2025 O AÑO 2025.","descripcionLeng":"BASES DA CONVOCATORIA DE SUBVENCIÓNS DESTINADAS AO FOMENTO DO DEPORTE FEDERADO, EXERCICIO 2025, CORRESPONDENTE Á TEMPADA 2024/2025 AO ANO 2025.","fechaRecepcion":"2026-04-16","nivel1":"LOCAL","nivel2":"VILAGARCÍA DE AROUSA","nivel3":"FUNDACIÓN PÚBLICA DE SERVICIOS DEPORTIVOS MUNICIPALES","codigoInvente":null},{"id":1100905,"mrr":false,"numeroConvocatoria":"899344","descripcion":"XXVI PREMIO DE POESÍA VICENTE NÚÑEZ","descripcionLeng":null,"fechaRecepcion":"2026-04-16","nivel1":"LOCAL","nivel2":"DIPUTACIÓN PROV. DE CÓRDOBA","nivel3":"DIPUTACIÓN PROVINCIAL DE CÓRDOBA","codigoInvente":null},{"id":1100902,"mrr":false,"numeroConvocatoria":"899341","descripcion":"FINANC.PLANES FORMAC.2026 UNITARIOS/AGRUPADOS ENTID. LOCAL-ASOC/FED. MUNIC.","descripcionLeng":null,"fechaRecepcion":"2026-04-16","nivel1":"AUTONOMICA","nivel2":"COMUNIDAD DE MADRID","nivel3":"CONSEJERÍA ECONOMÍA, HACIENDA Y EMPLEO","codigoInvente":null},{"id":1100901,"mrr":false,"numeroConvocatoria":"899340","descripcion":"FINANC.PLANES FORMAC.2026 INTERADMINISTRAT.ENTID.LOC-ASOC/FEDER. MUNIC.","descripcionLeng":null,"fechaRecepcion":"2026-04-16","nivel1":"AUTONOMICA","nivel2":"COMUNIDAD DE MADRID","nivel3":"CONSEJERÍA ECONOMÍA, HACIENDA Y EMPLEO","codigoInvente":null},{"id":1100900,"mrr":true,"numeroConvocatoria":"899339","descripcion":"Resolución de la Secretaría de Estado de Telecomunicaciones e Infraestructuras Digitales de ayudas a participantes directos en el programa UNICO IPCEI CIS, tercera convocatoria - 2026, en el marco del PRTR - financiado por UE - NextGeneratioEU","descripcionLeng":null,"fechaRecepcion":"2026-04-16","nivel1":"ESTADO","nivel2":"MINISTERIO PARA LA TRANSFORMACIÓN DIGITAL Y DE LA FUNCIÓN PÚBLICA","nivel3":"SECRETARÍA DE ESTADO DE TELECOMUNICACIONES E INFRAESTRUCTURAS DIGITALES","codigoInvente":null},{"id":1100899,"mrr":false,"numeroConvocatoria":"899338","descripcion":"SUBV. A MUNICIPIOS C.M.PARA EQUIPAM., OBRAS Y MEJORAS LOCALES JUVENILES","descripcionLeng":null,"fechaRecepcion":"2026-04-16","nivel1":"AUTONOMICA","nivel2":"COMUNIDAD DE MADRID","nivel3":"CONSEJERÍA DE FAMILIA, JUVENTUD Y ASUNTOS SOCIALES","codigoInvente":null},{"id":1100896,"mrr":false,"numeroConvocatoria":"899335","descripcion":"Orden del 13 de abril de 2026 por la que se establecen las bases reguladoras de las ayudas a centros especiales de empleo con el fin de promover la integración laboral de las personas con discapacidad, y se procede a su convocatoria para el año 2026 ","descripcionLeng":null,"fechaRecepcion":"2026-04-16","nivel1":"AUTONOMICA","nivel2":"GALICIA","nivel3":"CONSELLERÍA DE EMPLEO, COMERCIO Y EMIGRACIÓN","codigoInvente":null},{"id":1100895,"mrr":false,"numeroConvocatoria":"899334","descripcion":"PLAN CORRESPONSABLES 2025 PARA ACTUACIONES EN MATERIA DE CONCILIACIÓN Y/O CORRESPONSABILIDAD EN EL MARCO DE LA RESOLUCIÓN “III CIUDADANÍA Y ESPACIOS CORRESPONSABLES EN LA PROVINCIA DE SEVILLA DESTINADO A ENTIDADES LOCALES MENORES DE 20.000 HABITANTES.","descripcionLeng":null,"fechaRecepcion":"2026-04-16","nivel1":"LOCAL","nivel2":"DIPUTACIÓN PROV. DE SEVILLA","nivel3":"DIPUTACIÓN PROVINCIAL DE SEVILLA","codigoInvente":null}],"pageable":{"sort":{"sorted":true,"unsorted":false,"empty":false},"pageNumber":47,"pageSize":50,"offset":2350,"unpaged":false,"paged":true},"last":false,"totalElements":10000,"totalPages":200,"first":false,"sort":{"sorted":true,"unsorted":false,"empty":false},"numberOfElements":50,"size":50,"number":47,"empty":false,"advertencia":"La reutilización de los datos del Sistema Nacional de Publicidad de Subvenciones y Ayudas Públicas está sujeta a una serie de restricciones y consideraciones legales. Consulte el aviso legal en https://www.infosubvenciones.es/bdnstrans/GE/es/avisolegal.Además, el usuario debe ser consciente que la información presentada es de naturaleza dinámica, y que los datos pueden ser sometidos a correcciones, inserciones, modificaciones y eliminaciones en momentos posteriores a su extracción. Accesos al API del sistema Nacional de Publicidad de Subvenciones y Ayudas Públicas. La Administración Presupuestaria, para salvaguardar la protección del acceso libre e irrestricto de los ciudadanos a este Portal y a su información podrá adoptar medidas restrictivas de acceso al API ante situaciones de manifiesto abuso del servicio, riesgos de seguridad, o uso fraudulento de la información descargada, de acuerdo con las buenas prácticas de gestión de datos abiertos (https://datos.gob.es/es/blog/limitaciones-la-consulta-de-una-api) establecidas por el Ministerio para la Transformación Digital y de la Función Pública."}