{"content":[{"id":1104052,"mrr":false,"numeroConvocatoria":"902491","descripcion":"Bases reguladoras de la convocatoria de subvenciones en régimen de concurrencia competitiva en materia de Deportes 2026. Clubes y entidades deportivos que participan en ligas oficiales de carácter nacional y autonómico.","descripcionLeng":null,"fechaRecepcion":"2026-04-29","nivel1":"LOCAL","nivel2":"CALAHORRA","nivel3":"AYUNTAMIENTO DE CALAHORRA","codigoInvente":null},{"id":1104049,"mrr":false,"numeroConvocatoria":"902488","descripcion":"Ayudas a la contratación TALENTO 45+ Cámara de Comercio de Orihuela.2026.","descripcionLeng":null,"fechaRecepcion":"2026-04-29","nivel1":"OTROS","nivel2":"CÁMARA DE COMERCIO DE ORIHUELA","nivel3":null,"codigoInvente":null},{"id":1104042,"mrr":false,"numeroConvocatoria":"902481","descripcion":"Bases del concurso para la elección de los carteles anunciadores de las fiestas patronales de agosto 2026 y marzo 2027 en honor de nuestros patronos San Emeterio y San Celedonio","descripcionLeng":null,"fechaRecepcion":"2026-04-29","nivel1":"LOCAL","nivel2":"CALAHORRA","nivel3":"AYUNTAMIENTO DE CALAHORRA","codigoInvente":null},{"id":1104040,"mrr":false,"numeroConvocatoria":"902479","descripcion":"BASES I CONVOCATÒRIA PER A LA CESSIÓ DE COMPOSTADORS DOMÈSTICS AL MUNICIPI D¿OLÈRDOLA DE L¿ANY 2026 (SUBVENCIONS EN ESPÈCIE)\nBASES Y CONVOCATORIA PARA LA CESIÓN DE COMPOSTADORES DOMÉSTICOS EN EL MUNICIPIO DE OLÈRDOLA - ANUALIDAD 2026","descripcionLeng":null,"fechaRecepcion":"2026-04-29","nivel1":"LOCAL","nivel2":"OLÈRDOLA","nivel3":"AYUNTAMIENTO DE OLÈRDOLA","codigoInvente":null},{"id":1104038,"mrr":false,"numeroConvocatoria":"902477","descripcion":"Concesión de ayudas de comedor escolar dirigidas al alumnado de enseñanza obligatoria y de segundo ciclo de educación infantil\nescolarizados en centros educativos sufragados con fondos públicos para el curso escolar 2026-2027","descripcionLeng":"Concessió d’ajuts de menjador escolar adreçats a l’alumnat d’ensenyaments obligatoris i de segon cicle d’educació infantil escolaritzats\nen centres educatius sufragats amb fons públics per al curs escolar 2026-2027\n","fechaRecepcion":"2026-04-29","nivel1":"LOCAL","nivel2":"CONSELL COMARCAL DE GARRAF","nivel3":"CONSELL COMARCAL DE GARRAF","codigoInvente":null},{"id":1104037,"mrr":false,"numeroConvocatoria":"902476","descripcion":"ACUERDO DE LA JUNTA DE GOBIERNO LOCAL DE 20 DE ABRIL DE 2026 POR EL QUE SE CONVOCAN AYUDAS DESTINADAS AL ALQUILER DE ESTABLECIMIENTOS PARA EL DESARROLLO DE UNA ACTIVIDAD ECONÓMICA DURANTE EL AÑO 2026","descripcionLeng":null,"fechaRecepcion":"2026-04-29","nivel1":"LOCAL","nivel2":"VILLANUEVA DE LA SERENA","nivel3":"AYUNTAMIENTO DE VILLANUEVA DE LA SERENA","codigoInvente":null},{"id":1104035,"mrr":false,"numeroConvocatoria":"902474","descripcion":"Resolución 550/MADOC/PC-2026019 de 29 de abril de 2026, del Jefe del Mando de Adiestramiento y Doctrina por la que se convocan las ayudas económicas para la realización de un Máster Universitario en Derecho Militar para el personal del Ejército de Tierra.","descripcionLeng":null,"fechaRecepcion":"2026-04-29","nivel1":"ESTADO","nivel2":"MINISTERIO DE DEFENSA","nivel3":"EJÉRCITO DE TIERRA","codigoInvente":null},{"id":1104033,"mrr":false,"numeroConvocatoria":"902472","descripcion":"I CONCURSO DRAG QUEEN SIERRA DE CÁDIZ 2026","descripcionLeng":null,"fechaRecepcion":"2026-04-29","nivel1":"LOCAL","nivel2":"VILLAMARTÍN","nivel3":"AYUNTAMIENTO DE VILLAMARTÍN","codigoInvente":null},{"id":1104032,"mrr":true,"numeroConvocatoria":"902471","descripcion":"Resolución del presidente del IVACE por la que se convocan ayudas para la ejecución de  programas de incentivos ligados al autoconsumo y al almacenamiento, con fuentes de energía renovable,","descripcionLeng":"Resolució del president de l'IVACE per la qual es convocquen ajudes per a l'execució de preogrames d'incentius lligats a l'autoconsum i a l'emmagatzenatge, amb fonts d'energia renovable","fechaRecepcion":"2026-04-29","nivel1":"AUTONOMICA","nivel2":"COMUNITAT VALENCIANA","nivel3":"INSTITUTO VALENCIANO DE COMPETITIVIDAD EMPRESARIAL (IVACE)","codigoInvente":"INV00003755"},{"id":1104030,"mrr":false,"numeroConvocatoria":"902469","descripcion":"ACUERDO DE LA JUNTA DE GOBIERNO LOCAL DE FECHA 20 DE ABRIL DE 2026 POR LA QUE SE APRUEBAN AYUDAS DESTINADAS A PROMOVER LA CREACIÓN, MODERNIZACIÓN Y RENOVACIÓN DE ESTABLECIMIENTOS COMERCIALES, HOSTELEROS Y DE SERVICIOS DURANTE EL AÑO 2026","descripcionLeng":null,"fechaRecepcion":"2026-04-29","nivel1":"LOCAL","nivel2":"VILLANUEVA DE LA SERENA","nivel3":"AYUNTAMIENTO DE VILLANUEVA DE LA SERENA","codigoInvente":null},{"id":1104029,"mrr":false,"numeroConvocatoria":"902468","descripcion":"RESOLUCIÓN de 28 de abril de 2026, de la Dirección General de Deporte, por la que se convocan subvenciones destinadas a fomentar el deporte universitario y contribuir a la organización del Campeonato Autonómico de D.U. de la C.V(CADU),temporada 2025-2026","descripcionLeng":"RESOLUCIÓ de 28 d’ abril, del director general d'Esport, per la qual es convoquen subvencions destinades a fomentar l'esport universitari i contribuir a l'organització del Campionat Autonòmic d'Esport Universitari de la C.V (CAEU), temporada 2025-2026","fechaRecepcion":"2026-04-29","nivel1":"AUTONOMICA","nivel2":"COMUNITAT VALENCIANA","nivel3":"SECRETARÍA AUTONÓMICA DE RELACIONES INSTITUCIONALES Y TRANSPARENCIA","codigoInvente":null},{"id":1104028,"mrr":false,"numeroConvocatoria":"902467","descripcion":"Resolución 550/MADOC/PC-2026021, de 29 de abril de 2026, del Jefe del Mando de Adiestramiento y Doctrina por la que se convocan las ayudas para la realización del Máster en Prevención de Riesgos Laborales por personal del ET o integrado en su estructura","descripcionLeng":null,"fechaRecepcion":"2026-04-29","nivel1":"ESTADO","nivel2":"MINISTERIO DE DEFENSA","nivel3":"EJÉRCITO DE TIERRA","codigoInvente":null},{"id":1104025,"mrr":false,"numeroConvocatoria":"902464","descripcion":"CONVOCATORIA DE AUTOEMPLEO FEMENINO EN LOS MUNICIPIOS DE LA PROVINCIA DE ZARAGOZA EJERCICIO 2026","descripcionLeng":null,"fechaRecepcion":"2026-04-29","nivel1":"LOCAL","nivel2":"DIPUTACIÓN PROV. DE ZARAGOZA","nivel3":"DIPUTACIÓN PROVINCIAL DE ZARAGOZA","codigoInvente":null},{"id":1104024,"mrr":false,"numeroConvocatoria":"902463","descripcion":"RDEN de 21 de abril de 2026 de la Consellería de Cultura, Lengua y Juventud, por la que se establecen las bases reguladoras para la concesión de subvenciones a las galerías de arte para la participación en ferias y mercados de arte fuera de la Comunidad A","descripcionLeng":null,"fechaRecepcion":"2026-04-29","nivel1":"AUTONOMICA","nivel2":"GALICIA","nivel3":"CONSELLERÍA DE CULTURA, LENGUA Y JUVENTUD","codigoInvente":null},{"id":1104023,"mrr":false,"numeroConvocatoria":"902462","descripcion":"Ayudas al control de rendimiento lechero.","descripcionLeng":"Ajuts al control de rendiment lleter","fechaRecepcion":"2026-04-29","nivel1":"AUTONOMICA","nivel2":"CATALUÑA","nivel3":"DEPARTAMENT D'AGRICULTURA, RAMADERIA, PESCA I ALIMENTACIÓ","codigoInvente":null},{"id":1104022,"mrr":false,"numeroConvocatoria":"902461","descripcion":"Premios Emprende dipta.cat 2026","descripcionLeng":"Premis Emprèn dipta.cat 2026","fechaRecepcion":"2026-04-29","nivel1":"LOCAL","nivel2":"DIPUTACIÓN PROV. DE TARRAGONA","nivel3":"DIPUTACIÓN PROVINCIAL DE TARRAGONA","codigoInvente":null},{"id":1104021,"mrr":false,"numeroConvocatoria":"902460","descripcion":"Convocatoria para la concesión de subvenciones a grupos, asociaciones y agentes culturales de Azkoitia sin ánimo de lucro o a actividades culturales y/o de ocio puntuales que se desarrollen en Azkoitia o que estén dirigidas a la población azkoitiarra.","descripcionLeng":"Irabazi asmorik gabeko Azkoitiko  kultur  talde, elkarte, kulturgileei edo Azkoitian burutuko den edo azkoitiarrentzat zuzendurik dagoen kultur edota aisialdi jarduera puntualei dirulaguntzak emateko deialdia.","fechaRecepcion":"2026-04-29","nivel1":"LOCAL","nivel2":"AZKOITIA","nivel3":"AYUNTAMIENTO DE AZKOITIA","codigoInvente":null},{"id":1104018,"mrr":false,"numeroConvocatoria":"902457","descripcion":"Orden de 29 de abril de 2026, de la Consejería de Industria, Comercio y Empleo, por la que se convocan subvenciones para el año 2026 dirigidas a trabajadores afectados por expedientes temporales de regulación de empleo en Castilla y León","descripcionLeng":null,"fechaRecepcion":"2026-04-29","nivel1":"AUTONOMICA","nivel2":"CASTILLA Y LEÓN","nivel3":"CONSEJERÍA DE INDUSTRIA, COMERCIO Y EMPLEO","codigoInvente":null},{"id":1104016,"mrr":false,"numeroConvocatoria":"902455","descripcion":"LÍNEA EMPRESAS MÍNIMIS CONV AYUDAS PARA LA REALIZACIÓN DE DOCT IND 2024","descripcionLeng":null,"fechaRecepcion":"2026-04-29","nivel1":"AUTONOMICA","nivel2":"COMUNIDAD DE MADRID","nivel3":"CONSEJERÍA DE EDUCACIÓN, CIENCIA Y UNIVERSIDADES","codigoInvente":null},{"id":1104012,"mrr":false,"numeroConvocatoria":"902451","descripcion":"CONVOCATORIA PUBLICA DEL AYUNTAMIENTO DE ONTINYENT PARA LA CONCESIÓN DE AYUDAS DE APOYO A LA FAMILIA, INFANCIA Y ADOLESCENCIA EN PERIODO ESTIVAL","descripcionLeng":null,"fechaRecepcion":"2026-04-29","nivel1":"LOCAL","nivel2":"ONTINYENT","nivel3":"AYUNTAMIENTO DE ONTINYENT","codigoInvente":null},{"id":1104010,"mrr":false,"numeroConvocatoria":"902449","descripcion":"Resolución de 24 de abril de 2026, del Director del Instituto de Fomento de la Región de Murcia, por delegación, de convocatoria de ayudas a la participación en ferias, eventos y misiones comerciales. Exposición y visita comercial Gourmet Suecia 2026.","descripcionLeng":null,"fechaRecepcion":"2026-04-29","nivel1":"AUTONOMICA","nivel2":"REGIÓN DE MURCIA","nivel3":"INSTITUTO DE FOMENTO DE LA REGIÓN DE MURCIA (INFO)","codigoInvente":"INV00003691"},{"id":1104001,"mrr":false,"numeroConvocatoria":"902440","descripcion":"CONVOCATORIA PROGRAMA PYME SOSTENIBLE 2026 - Cámara Valencia","descripcionLeng":null,"fechaRecepcion":"2026-04-29","nivel1":"OTROS","nivel2":"CÁMARA DE COMERCIO DE VALENCIA","nivel3":null,"codigoInvente":null},{"id":1104000,"mrr":false,"numeroConvocatoria":"902439","descripcion":"Convocatoria para subvencionar a agentes y asociaciones culturales sin ánimo de lucro de Azkoitia para llevar a cabo sus proyectos y actividades ordinarias a lo largo del año o curso.","descripcionLeng":"Irabazi asmorik gabeko Azkoitiko kultur elkarteek eta kulturgileek urtean zehar edo ikasturtean beraien ohiko egitasmo eta jarduerak burutzeko dirulaguntzak emateko deialdia","fechaRecepcion":"2026-04-29","nivel1":"LOCAL","nivel2":"AZKOITIA","nivel3":"AYUNTAMIENTO DE AZKOITIA","codigoInvente":null},{"id":1103996,"mrr":false,"numeroConvocatoria":"902435","descripcion":"Convocatoria Programa Pyme Innova 2026 - Cámara Valencia","descripcionLeng":null,"fechaRecepcion":"2026-04-29","nivel1":"OTROS","nivel2":"CÁMARA DE COMERCIO DE VALENCIA","nivel3":null,"codigoInvente":null},{"id":1103995,"mrr":false,"numeroConvocatoria":"902434","descripcion":"Convocatoria Programa Pyme Digital 2026 - Cámara de Comercio de Santa Cruz de Tenerife","descripcionLeng":null,"fechaRecepcion":"2026-04-29","nivel1":"OTROS","nivel2":"CÁMARA DE COMERCIO DE TENERIFE","nivel3":null,"codigoInvente":null},{"id":1103994,"mrr":false,"numeroConvocatoria":"902433","descripcion":"Convocatoria Pública de Subvenciones, en régimen de concurrencia competitiva, dirigida a entidades sociales para la realización de proyectos de servicios sociales 2026.","descripcionLeng":null,"fechaRecepcion":"2026-04-29","nivel1":"LOCAL","nivel2":"DIPUTACIÓN PROV. DE CÓRDOBA","nivel3":"INSTITUTO PROVINCIAL DE BIENESTAR SOCIAL","codigoInvente":"INV00004456"},{"id":1103991,"mrr":false,"numeroConvocatoria":"902430","descripcion":"Resolución del Vicerrector de Estudiantes y Empleabilidad de la Universidad de Oviedo por la que se autoriza el gasto y aprueba la Convocatoria para la Concesión de ayudas para el desarrollo de proyectos del Observatorio del Estudiantado-EresUO, en régime","descripcionLeng":null,"fechaRecepcion":"2026-04-29","nivel1":"OTROS","nivel2":"UNIVERSIDAD DE OVIEDO","nivel3":null,"codigoInvente":"INV00005347"},{"id":1103990,"mrr":false,"numeroConvocatoria":"902429","descripcion":"Solicitud y concesión de ayudas económicas a entidades, grupos e individuos sin ánimo de lucro del municipio de Azkoitia para la organización de fiestas","descripcionLeng":"Irabazi asmorik gabeko Azkoitiko talde zein elkarteei, zein norbanakoei diru laguntzak emateko oinarriak, herrian festak antolatzeko helburuarekin","fechaRecepcion":"2026-04-29","nivel1":"LOCAL","nivel2":"AZKOITIA","nivel3":"AYUNTAMIENTO DE AZKOITIA","codigoInvente":null},{"id":1103989,"mrr":false,"numeroConvocatoria":"902428","descripcion":"ENTIDADES CULTURALES SIN ÁNIMO DE LUCRO","descripcionLeng":null,"fechaRecepcion":"2026-04-29","nivel1":"LOCAL","nivel2":"TORRENT","nivel3":"AYUNTAMIENTO DE TORRENT","codigoInvente":null},{"id":1103988,"mrr":false,"numeroConvocatoria":"902427","descripcion":"Ayudas a la movilidad y desplazamiento para estudiantes empadronados en el Municipio de Santa Cruz de La Palma que cursen estudios fuera de la Isla de La Palma Curso Académico 2025-26","descripcionLeng":null,"fechaRecepcion":"2026-04-29","nivel1":"LOCAL","nivel2":"SANTA CRUZ DE LA PALMA","nivel3":"AYUNTAMIENTO DE SANTA CRUZ DE LA PALMA","codigoInvente":null},{"id":1103987,"mrr":false,"numeroConvocatoria":"902426","descripcion":"Subvenciones 2026 proyectos de eficiencia energética y reducción de emisiones","descripcionLeng":null,"fechaRecepcion":"2026-04-29","nivel1":"LOCAL","nivel2":"DIPUTACIÓN PROV. DE CÓRDOBA","nivel3":"AGENCIA PROVINCIAL DE LA ENERGÍA","codigoInvente":"INV00000129"},{"id":1103984,"mrr":false,"numeroConvocatoria":"902423","descripcion":"ACUERDO DE LA JUNTA DE GOBIERNO LOCAL POR LA QUE SE CONVOCAN AYUDAS PARA LA ADQUISICIÓN DE LIBROS DE TEXTO POR PARTE DE ALUMNOS QUE CURSEN ESTUDIOS DE EDUCACIÓN INFANTIL (DE 1 A 5 AÑOS) EN CENTROS ESCOLARES DE VILLANUEVA DE LA SERENA CURSO 2026/2027","descripcionLeng":null,"fechaRecepcion":"2026-04-29","nivel1":"LOCAL","nivel2":"VILLANUEVA DE LA SERENA","nivel3":"AYUNTAMIENTO DE VILLANUEVA DE LA SERENA","codigoInvente":null},{"id":1103979,"mrr":false,"numeroConvocatoria":"902418","descripcion":"PREMIO IBEROAMERICANO CORTES DE CÁDIZ - BASES DEL CONCURSO II PREMIO DE LOS MARES Y OCÉANOS","descripcionLeng":null,"fechaRecepcion":"2026-04-29","nivel1":"LOCAL","nivel2":"CÁDIZ","nivel3":"AYUNTAMIENTO DE CÁDIZ","codigoInvente":null},{"id":1103978,"mrr":false,"numeroConvocatoria":"902417","descripcion":"PREMIOS IBEROAMERICANOS CORTES DE CÁDIZ - BASES DEL CONCURSO DEL XIV PREMIO DE RELATOS CORTES DE CÁDIZ","descripcionLeng":null,"fechaRecepcion":"2026-04-29","nivel1":"LOCAL","nivel2":"CÁDIZ","nivel3":"AYUNTAMIENTO DE CÁDIZ","codigoInvente":null},{"id":1103977,"mrr":false,"numeroConvocatoria":"902416","descripcion":"PREMIOS IBEROAMERICANOS CORTES DE CÁDIZ - BASES DEL CONCURSO DEL XI PREMIO DE CREACIÓN ARTÍSTICA CONTEMPORANEA CORTES DE CÁDIZ","descripcionLeng":null,"fechaRecepcion":"2026-04-29","nivel1":"LOCAL","nivel2":"CÁDIZ","nivel3":"AYUNTAMIENTO DE CÁDIZ","codigoInvente":null},{"id":1103976,"mrr":false,"numeroConvocatoria":"902415","descripcion":"Programa de Fomento de Empleo Agrario en Andalucía y Extremadura. Proyectos de Generadores de Empleo Estable 2026","descripcionLeng":null,"fechaRecepcion":"2026-04-29","nivel1":"ESTADO","nivel2":"MINISTERIO DE TRABAJO Y ECONOMÍA SOCIAL","nivel3":"DIRECCIÓN PROVINCIAL DEL SEPE DE CÁCERES","codigoInvente":null},{"id":1103975,"mrr":false,"numeroConvocatoria":"902414","descripcion":"PCEM PARA SUMINISTROS MÍNIMOS VITALES DEL AYUNTAMIENTO DE DON BENITO PARA 2026","descripcionLeng":null,"fechaRecepcion":"2026-04-29","nivel1":"LOCAL","nivel2":"DON BENITO","nivel3":"AYUNTAMIENTO DE DON BENITO","codigoInvente":null},{"id":1103973,"mrr":false,"numeroConvocatoria":"902412","descripcion":"PCEM SERVICIO RESPIRO FAMILIAR A PERSONAS CUIDADORAS HABITUALES NO PROFESIONALES 2026 DEL AYUNTAMIENTO DE DON BENITO PARA 2026","descripcionLeng":null,"fechaRecepcion":"2026-04-29","nivel1":"LOCAL","nivel2":"DON BENITO","nivel3":"AYUNTAMIENTO DE DON BENITO","codigoInvente":null},{"id":1103972,"mrr":false,"numeroConvocatoria":"902411","descripcion":"RESOLUCIÓN UNIVERSIDAD REY JUAN CARLOS CONVOCATORIA DE BECAS DE LA V EDICIÓN DEL PROGRAMA “CAMPUS RURAL”: PRÁCTICAS UNIVERSITARIAS EN ENTORNOS RURALES, DURANTE EL CURSO 2025-2026","descripcionLeng":null,"fechaRecepcion":"2026-04-29","nivel1":"OTROS","nivel2":"UNIVERSIDAD REY JUAN CARLOS","nivel3":null,"codigoInvente":"INV00005374"},{"id":1103970,"mrr":false,"numeroConvocatoria":"902409","descripcion":"RESOLUCIÓN DE 28 DE ABRIL DEL VICERRECTOR DE ESTUDIANTES Y EMPLEABILIDAD POR LA QUE SE AUTORIZA EL GASTO Y SE APRUEBA LA CONVOCATORIA PARA LA CONCESIÓN DE 114 BECAS DEL PROGRAMA BECAS SANTANDER AYUDA ECONÓMICA A ESTUDIANTADO QUE CURSE ESTUDIOS OF","descripcionLeng":null,"fechaRecepcion":"2026-04-29","nivel1":"OTROS","nivel2":"UNIVERSIDAD DE OVIEDO","nivel3":null,"codigoInvente":"INV00005347"},{"id":1103966,"mrr":false,"numeroConvocatoria":"902405","descripcion":"SUBVENCIONES SALUD MENTAL INFANTO JUVENIL 2026","descripcionLeng":null,"fechaRecepcion":"2026-04-29","nivel1":"AUTONOMICA","nivel2":"COMUNIDAD DE MADRID","nivel3":"CONSEJERÍA DE SANIDAD","codigoInvente":null},{"id":1103964,"mrr":false,"numeroConvocatoria":"902403","descripcion":"CONVOCATORIA QUE REGULA LAS AYUDAS ECONÓMICAS PARA TRATAMIENTO DE DROGODEPENDENCIAS Y OTRAS ADICCIONES","descripcionLeng":"DEIALDIA, ERREGULATZEN DUTENAK DIRU LAGUNTZAK EMATEA DROGA MENDEKOTASUNAK ZEIN BESTE MENDEKOTASUN BATZUK TRATATZEKO","fechaRecepcion":"2026-04-29","nivel1":"LOCAL","nivel2":"ARRASATE/MONDRAGÓN","nivel3":"AYUNTAMIENTO DE ARRASATE/MONDRAGÓN","codigoInvente":null},{"id":1103958,"mrr":false,"numeroConvocatoria":"902397","descripcion":"Programa de Fomento de Empleo Agrario en Andalucía y Extremadura. Proyectos de Garantía de Rentas 2026","descripcionLeng":null,"fechaRecepcion":"2026-04-29","nivel1":"ESTADO","nivel2":"MINISTERIO DE TRABAJO Y ECONOMÍA SOCIAL","nivel3":"DIRECCIÓN PROVINCIAL DEL SEPE DE CÁCERES","codigoInvente":null},{"id":1103957,"mrr":false,"numeroConvocatoria":"902396","descripcion":"CONVOCATORIA PARA LA CONCESIÓN DE SUBVENCIONES PARA ASOCIACIONES QUE DESARROLLAN SU ACTIVIDAD EN EL ÁMBITO DE LA ACCIÓN SOCIAL 2026","descripcionLeng":"DEIALDIA  DIRU LAGUNTZAK EMATEKO 2026AN GIZARTE EKINTZAREN EREMUAN DIHARDUTEN ELKARTEEI","fechaRecepcion":"2026-04-29","nivel1":"LOCAL","nivel2":"ARRASATE/MONDRAGÓN","nivel3":"AYUNTAMIENTO DE ARRASATE/MONDRAGÓN","codigoInvente":null},{"id":1103951,"mrr":false,"numeroConvocatoria":"902390","descripcion":"Primera edición del Concurso Carlos Llorca Baus para jóvenes promesas de la cocina mediterránea.","descripcionLeng":null,"fechaRecepcion":"2026-04-29","nivel1":"LOCAL","nivel2":"VILLAJOYOSA/VILA JOIOSA, LA","nivel3":"AYUNTAMIENTO DE VILLAJOYOSA/VILA JOIOSA, LA","codigoInvente":null},{"id":1103950,"mrr":false,"numeroConvocatoria":"902389","descripcion":"Aprobación de la convocatoria de subvenciones en régimen de concurrencia competitiva destinadas a proyectos, actividades y servicios de utilidad pública y de interés municipal: protección y bienestar animal por actuaciones realizadas durante el año 2025","descripcionLeng":"Aprovació de la convocatòria de subvencions en règim de concurrència competitiva adreçades al foment de projectes, activitats i serveis d'utilitat pública i d'interès municipal: protecció i benestar animal per actuacions fetes durant l'any 2025","fechaRecepcion":"2026-04-29","nivel1":"LOCAL","nivel2":"SANT CUGAT DEL VALLÈS","nivel3":"AYUNTAMIENTO DE SANT CUGAT DEL VALLÈS","codigoInvente":null},{"id":1103936,"mrr":false,"numeroConvocatoria":"902375","descripcion":"Convocatoria premios 64 Carroussel Costa Brava","descripcionLeng":"Convocatòria premis 64è Carroussel Costa Brava ","fechaRecepcion":"2026-04-29","nivel1":"LOCAL","nivel2":"PALAFRUGELL","nivel3":"AYUNTAMIENTO DE PALAFRUGELL","codigoInvente":null},{"id":1103929,"mrr":false,"numeroConvocatoria":"902368","descripcion":"Orden Consejera de Empleo, Ciencia y Universidades, que aprueba convocatoria de subvenciones públicas para ejecución acciones formativas dirigidas a personas desempleadas con necesidades formativas especiales o dificultades de inserción o recualificación","descripcionLeng":null,"fechaRecepcion":"2026-04-29","nivel1":"AUTONOMICA","nivel2":"ARAGÓN","nivel3":"INSTITUTO ARAGONÉS DE EMPLEO (INAEM)","codigoInvente":"INV00003652"},{"id":1103927,"mrr":false,"numeroConvocatoria":"902366","descripcion":"CONVOCATORIA PARA LA CONCESIÓN DE SUBVENCIONES PARA ORGANIZACIONES NO GUBERNAMENTALES (ONG) QUE DESARROLLEN PROGRAMAS DE COOPERACIÓN PARA EL DESARROLLO 2026","descripcionLeng":"DEIALDIA DIRU LAGUNTZAK EMATEKO GOBERNU KANPOKO ERAKUNDEEI (GKE), 2026AN GARAPENERAKO LANKIDETZA PROGRAMAK EGITEN BADITUZTE.","fechaRecepcion":"2026-04-29","nivel1":"LOCAL","nivel2":"ARRASATE/MONDRAGÓN","nivel3":"AYUNTAMIENTO DE ARRASATE/MONDRAGÓN","codigoInvente":null},{"id":1103925,"mrr":false,"numeroConvocatoria":"902364","descripcion":"BASES REGULADORAS DE LA CONVOCATORIA DEL CONCURSO PÚBLICO PARA LA CONCESIÓN DE SUBVENCIONES MEDIANTE CONCURRENCIA COMPETITIVA A AYUNTAMIENTOS, DESTINADAS LA ADQUISICIÓN, REHABILITACIÓN Y/O MEJORA DE LAS VIVIENDAS DESTINADAS ALQUILER RESIDENCIAL, AÑO 2026","descripcionLeng":"BASES REGULADORAS DA CONVOCATORIA DO CONCURSO PARA A CONCESIÓN DE SUBVENCIÓNS MEDIANTE CONCORRENCIA COMPETITIVA A CONCELLOS DESTINADAS Á ADQUISICIÓN, REHABILITACIÓN E/OU MELLORA DE VIVENDAS DESTINADAS AO ALUGUER RESIDENCIAL, ANO 2026.","fechaRecepcion":"2026-04-29","nivel1":"LOCAL","nivel2":"DIPUTACIÓN PROV. DE OURENSE","nivel3":"DIPUTACIÓN PROVINCIAL DE OURENSE","codigoInvente":null}],"pageable":{"sort":{"sorted":true,"unsorted":false,"empty":false},"pageNumber":25,"pageSize":50,"offset":1250,"paged":true,"unpaged":false},"last":false,"totalElements":10000,"totalPages":200,"first":false,"sort":{"sorted":true,"unsorted":false,"empty":false},"numberOfElements":50,"size":50,"number":25,"empty":false,"advertencia":"La reutilización de los datos del Sistema Nacional de Publicidad de Subvenciones y Ayudas Públicas está sujeta a una serie de restricciones y consideraciones legales. Consulte el aviso legal en https://www.infosubvenciones.es/bdnstrans/GE/es/avisolegal.Además, el usuario debe ser consciente que la información presentada es de naturaleza dinámica, y que los datos pueden ser sometidos a correcciones, inserciones, modificaciones y eliminaciones en momentos posteriores a su extracción. Accesos al API del sistema Nacional de Publicidad de Subvenciones y Ayudas Públicas. La Administración Presupuestaria, para salvaguardar la protección del acceso libre e irrestricto de los ciudadanos a este Portal y a su información podrá adoptar medidas restrictivas de acceso al API ante situaciones de manifiesto abuso del servicio, riesgos de seguridad, o uso fraudulento de la información descargada, de acuerdo con las buenas prácticas de gestión de datos abiertos (https://datos.gob.es/es/blog/limitaciones-la-consulta-de-una-api) establecidas por el Ministerio para la Transformación Digital y de la Función Pública."}